Larghezza
mm.
L A R G H I P I A T T I
Spessore mm.
Peso Kg / m.

b   ; 6     ; 8     ; 10    ; 12    ; 15    ; 20    ; 25    ; 30    ; 35    ; 40     ; 50     ; 60
160 ; 7.54  ; 10.05 ; 12.56 ; 15.07 ; 18.84 ; 25.12 ; 31.40 ; 37.70 ; 44.00 ; 50.20  ; 62.80  ; 75.36
180 ; 8.48  ; 11.30 ; 14.13 ; 16.96 ; 21.20 ; 28.26 ; 35.30 ; 42.40 ; 49.50 ; 56.50  ; 70.65  ; 84.78
200 ; 9.42  ; 12.56 ; 15.70 ; 18.84 ; 23.55 ; 31.40 ; 39.20 ; 47.10 ; 55.00 ; 62.80  ; 78.50  ; 94.20
220 ; 10.36 ; 13.82 ; 17.30 ; 20.70 ; 25.90 ; 34.50 ; 43.20 ; 51.80 ; 60.40 ; 69.10  ; 86.40  ; 103.60
250 ; 11.77 ; 15.70 ; 19.60 ; 23.60 ; 29.40 ; 39.20 ; 49.10 ; 58.90 ; 68.70 ; 78.50  ; 98.12  ; 117.80
280 ;       ;       ; 22.00 ; 26.40 ; 33.0  ; 44.00 ; 55.00 ; 65.90 ; 76.90 ; 87.90  ; 110.00 ; 131.80
300 ;       ;       ; 23.60 ; 28.30 ; 35.30 ; 47.10 ; 58.90 ; 70.60 ; 82.40 ; 94.20  ; 117.75 ; 141.30
320 ;       ;       ; 25.10 ; 30.10 ; 37.70 ; 50.20 ; 62.80 ; 75.40 ; 87.90 ; 100.00 ;        ;  
350 ;       ;       ;       ; 33.00 ; 41.20 ; 55.00 ; 68.70 ; 82.40 ;       ;        ;        ;  
380 ;       ;       ;       ;       ; 44.70 ; 60.00 ; 76.40 ; 89.50 ;       ;        ;        ;  
400 ;       ;       ;       ;       ; 47.20 ; 62.80 ; 78.50 ; 94.20 ;       ;        ;        ;  
