<?xml version="1.0" encoding="UTF-8" standalone="no"?>
<!-- Created with Inkscape (http://www.inkscape.org/) -->

<svg
   xmlns:dc="http://purl.org/dc/elements/1.1/"
   xmlns:cc="http://creativecommons.org/ns#"
   xmlns:rdf="http://www.w3.org/1999/02/22-rdf-syntax-ns#"
   xmlns:svg="http://www.w3.org/2000/svg"
   xmlns="http://www.w3.org/2000/svg"
   xmlns:xlink="http://www.w3.org/1999/xlink"
   xmlns:sodipodi="http://sodipodi.sourceforge.net/DTD/sodipodi-0.dtd"
   xmlns:inkscape="http://www.inkscape.org/namespaces/inkscape"
   id="svg2"
   version="1.1"
   inkscape:version="0.48.4 r9939"
   width="374.01105"
   height="347.71613"
   xml:space="preserve"
   sodipodi:docname="SN003a-EN-EU_01.svg"><metadata
     id="metadata8"><rdf:RDF><cc:Work
         rdf:about=""><dc:format>image/svg+xml</dc:format><dc:type
           rdf:resource="http://purl.org/dc/dcmitype/StillImage" /><dc:title></dc:title></cc:Work></rdf:RDF></metadata><defs
     id="defs6"><clipPath
       clipPathUnits="userSpaceOnUse"
       id="clipPath16"><path
         d="m 70.86,807.92 99.24,0 0,-57.66 -99.24,0 0,57.66 z"
         clip-rule="evenodd"
         id="path18"
         inkscape:connector-curvature="0" /></clipPath><clipPath
       clipPathUnits="userSpaceOnUse"
       id="clipPath102"><path
         d="m 247.74,437.3 6.72,0 0,11.22 -6.72,0 0,-11.22 z"
         id="path104"
         inkscape:connector-curvature="0" /></clipPath><pattern
       patternTransform="matrix(0.96,0,0,-0.96,144.6,222.99)"
       patternUnits="userSpaceOnUse"
       x="0"
       y="0"
       width="1"
       height="1"
       id="pattern200"><defs
         id="defs202"><mask
           maskUnits="userSpaceOnUse"
           x="0"
           y="0"
           width="1"
           height="1"
           id="_mask0"><image
             width="1"
             height="1"
             xlink:href="data:image/png;base64,iVBORw0KGgoAAAANSUhEUgAAAAgAAAAICAAAAADhZOFXAAAAAXNCSVQI5gpbmQAAABdJREFUCJlj+M/AwPCfgYGBiQEKyGMAAIu2Ag1NdgwVAAAAAElFTkSuQmCC"
             id="image205" /></mask></defs><path
         d="M 1,0 0,0 0,1 1,1 1,0 z"
         style="fill:#ffffff;fill-opacity:1;fill-rule:nonzero;stroke:none"
         id="path207" /><g
         transform="matrix(1,0,0,-1,0,1)"
         id="g209"><rect
           x="0"
           y="0"
           width="1"
           height="1"
           transform="matrix(1,0,0,-1,0,1)"
           style="fill:#000000;fill-opacity:1;fill-rule:nonzero"
           mask="url(#_mask0)"
           id="rect211" /></g></pattern><pattern
       patternTransform="matrix(0.96,0,0,-0.96,144.6,222.99)"
       patternUnits="userSpaceOnUse"
       x="0"
       y="0"
       width="1"
       height="1"
       id="pattern289"><defs
         id="defs291"><mask
           maskUnits="userSpaceOnUse"
           x="0"
           y="0"
           width="1"
           height="1"
           id="_mask1"><image
             width="1"
             height="1"
             xlink:href="data:image/png;base64,iVBORw0KGgoAAAANSUhEUgAAAAgAAAAICAAAAADhZOFXAAAAAXNCSVQI5gpbmQAAABdJREFUCJlj+M/AwPCfgYGBiQEKyGMAAIu2Ag1NdgwVAAAAAElFTkSuQmCC"
             id="image294" /></mask></defs><path
         d="M 1,0 0,0 0,1 1,1 1,0 z"
         style="fill:#ffffff;fill-opacity:1;fill-rule:nonzero;stroke:none"
         id="path296" /><g
         transform="matrix(1,0,0,-1,0,1)"
         id="g298"><rect
           x="0"
           y="0"
           width="1"
           height="1"
           transform="matrix(1,0,0,-1,0,1)"
           style="fill:#000000;fill-opacity:1;fill-rule:nonzero"
           mask="url(#_mask1)"
           id="rect300" /></g></pattern><clipPath
       clipPathUnits="userSpaceOnUse"
       id="clipPath372"><path
         d="m 280.86,436.7 3.9,0 0,5.04 -3.9,0 0,-5.04 z"
         id="path374"
         inkscape:connector-curvature="0" /></clipPath><clipPath
       clipPathUnits="userSpaceOnUse"
       id="clipPath388"><path
         d="m 194.76,441.62 3.18,0 0,4.86 -3.18,0 0,-4.86 z"
         id="path390"
         inkscape:connector-curvature="0" /></clipPath><clipPath
       clipPathUnits="userSpaceOnUse"
       id="clipPath400"><path
         d="m 357.72,440.42 3.18,0 0,4.98 -3.18,0 0,-4.98 z"
         id="path402"
         inkscape:connector-curvature="0" /></clipPath><pattern
       patternTransform="matrix(0.96,0,0,-0.96,144.6,222.99)"
       patternUnits="userSpaceOnUse"
       x="0"
       y="0"
       width="1"
       height="1"
       id="pattern604"><defs
         id="defs606"><mask
           maskUnits="userSpaceOnUse"
           x="0"
           y="0"
           width="1"
           height="1"
           id="_mask2"><image
             width="1"
             height="1"
             xlink:href="data:image/png;base64,iVBORw0KGgoAAAANSUhEUgAAAAgAAAAICAAAAADhZOFXAAAAAXNCSVQI5gpbmQAAABdJREFUCJljYGD4z8DA8J+BiQEKyGMAAIe6Ag1X4qwcAAAAAElFTkSuQmCC"
             id="image609" /></mask></defs><path
         d="M 1,0 0,0 0,1 1,1 1,0 z"
         style="fill:#ffffff;fill-opacity:1;fill-rule:nonzero;stroke:none"
         id="path611" /><g
         transform="matrix(1,0,0,-1,0,1)"
         id="g613"><rect
           x="0"
           y="0"
           width="1"
           height="1"
           transform="matrix(1,0,0,-1,0,1)"
           style="fill:#000000;fill-opacity:1;fill-rule:nonzero"
           mask="url(#_mask2)"
           id="rect615" /></g></pattern><pattern
       patternTransform="matrix(0.96,0,0,-0.96,144.6,222.99)"
       patternUnits="userSpaceOnUse"
       x="0"
       y="0"
       width="1"
       height="1"
       id="pattern693"><defs
         id="defs695"><mask
           maskUnits="userSpaceOnUse"
           x="0"
           y="0"
           width="1"
           height="1"
           id="_mask3"><image
             width="1"
             height="1"
             xlink:href="data:image/png;base64,iVBORw0KGgoAAAANSUhEUgAAAAgAAAAICAAAAADhZOFXAAAAAXNCSVQI5gpbmQAAABdJREFUCJljYGD4z8DA8J+BiQEKyGMAAIe6Ag1X4qwcAAAAAElFTkSuQmCC"
             id="image698" /></mask></defs><path
         d="M 1,0 0,0 0,1 1,1 1,0 z"
         style="fill:#ffffff;fill-opacity:1;fill-rule:nonzero;stroke:none"
         id="path700" /><g
         transform="matrix(1,0,0,-1,0,1)"
         id="g702"><rect
           x="0"
           y="0"
           width="1"
           height="1"
           transform="matrix(1,0,0,-1,0,1)"
           style="fill:#000000;fill-opacity:1;fill-rule:nonzero"
           mask="url(#_mask3)"
           id="rect704" /></g></pattern><clipPath
       clipPathUnits="userSpaceOnUse"
       id="clipPath776"><path
         d="m 277.32,187.04 3.84,0 0,4.92 -3.84,0 0,-4.92 z"
         id="path778"
         inkscape:connector-curvature="0" /></clipPath><clipPath
       clipPathUnits="userSpaceOnUse"
       id="clipPath792"><path
         d="m 351.24,186.86 3.06,0 0,4.86 -3.06,0 0,-4.86 z"
         id="path794"
         inkscape:connector-curvature="0" /></clipPath><clipPath
       clipPathUnits="userSpaceOnUse"
       id="clipPath812"><path
         d="m 204.24,184.82 3.24,0 0,5.04 -3.24,0 0,-5.04 z"
         id="path814"
         inkscape:connector-curvature="0" /></clipPath></defs><sodipodi:namedview
     pagecolor="#ffffff"
     bordercolor="#666666"
     borderopacity="1"
     objecttolerance="10"
     gridtolerance="10"
     guidetolerance="10"
     inkscape:pageopacity="0"
     inkscape:pageshadow="2"
     inkscape:window-width="1273"
     inkscape:window-height="782"
     id="namedview4"
     showgrid="false"
     inkscape:zoom="1.2684253"
     inkscape:cx="138.65552"
     inkscape:cy="111.14732"
     inkscape:window-x="376"
     inkscape:window-y="243"
     inkscape:window-maximized="0"
     inkscape:current-layer="g10"
     fit-margin-top="0"
     fit-margin-left="0"
     fit-margin-right="0"
     fit-margin-bottom="0" /><g
     id="g10"
     inkscape:groupmode="layer"
     inkscape:label="SN003a-EN-EU"
     transform="matrix(1.25,0,0,-1.25,-99.460456,894.34113)"><text
       transform="matrix(1,0,0,-1,85.56,617.7203)"
       id="text30"><tspan
         style="font-size:4.19040012px;font-variant:normal;font-weight:normal;font-stretch:normal;writing-mode:lr-tb;fill:#000000;fill-opacity:1;fill-rule:nonzero;stroke:none;font-family:Arial;-inkscape-font-specification:Helvetica"
         x="0 2.3395004 3.5392118"
         y="0"
         sodipodi:role="line"
         id="tspan32">2.0</tspan><tspan
         style="font-size:4.19040012px;font-variant:normal;font-weight:normal;font-stretch:normal;writing-mode:lr-tb;fill:#000000;fill-opacity:1;fill-rule:nonzero;stroke:none;font-family:Arial;-inkscape-font-specification:Helvetica"
         x="0 2.3395004 3.5392118"
         y="-47.76218"
         sodipodi:role="line"
         id="tspan34">2.5</tspan><tspan
         style="font-size:4.19040012px;font-variant:normal;font-weight:normal;font-stretch:normal;writing-mode:lr-tb;fill:#000000;fill-opacity:1;fill-rule:nonzero;stroke:none;font-family:Arial;-inkscape-font-specification:Helvetica"
         x="0 2.3395004 3.5392118"
         y="-94.740753"
         sodipodi:role="line"
         id="tspan36">3.0</tspan></text>
<text
       transform="matrix(1,0,0,-1,79.08,697.3403)"
       id="text38"><tspan
         style="font-size:9.80560017px;font-variant:normal;font-weight:normal;font-stretch:normal;writing-mode:lr-tb;fill:#000000;fill-opacity:1;fill-rule:nonzero;stroke:none;font-family:Arial;-inkscape-font-specification:Helvetica"
         x="0"
         y="0"
         id="tspan40">C</tspan></text>
<text
       transform="matrix(1,0,0,-1,86.1,696.5003)"
       id="text42"><tspan
         style="font-size:6.28569984px;font-variant:normal;font-weight:normal;font-stretch:normal;writing-mode:lr-tb;fill:#000000;fill-opacity:1;fill-rule:nonzero;stroke:none;font-family:Arial;-inkscape-font-specification:Helvetica"
         x="0"
         y="0"
         id="tspan44">1</tspan></text>
<path
       d="m 94.8,672.98 7.08,4.68 m 0,0 7.14,2.1 m 0,0 7.02,-0.06 m 0,0 7.08,-1.86 m 0,0 7.14,-3 m 0,0 7.08,-3.9 m 0,0 7.02,-4.26 m 0,0 7.2,-4.74 m 0,0 7.02,-4.86 m 0,0 7.14,-5.22 m 0,0 7.08,-5.28 m 0,0 7.02,-5.4 m 0,0 7.14,-5.4 m 0,0 7.08,-5.4 m 0,0 7.14,-5.4 m 0,0 7.08,-5.4 m 0,0 7.14,-5.28 m 0,0 7.02,-5.28 m 0,0 7.08,-5.1 m 0,0 7.14,-5.1 m 0,0 7.02,-4.98 m 0,0 7.08,-4.86 m 0,0 7.02,-4.62 m 0,0 7.2,-4.56 m 0,0 7.02,-4.44 m 0,0 3.42,-2.1 m -180.6,89.76 7.08,-1.2 m 0,0 7.14,-2.4 m 0,0 7.02,-3.18 m 0,0 7.08,-3.9 m 0,0 7.14,-4.08 m 0,0 7.08,-4.44 m 0,0 7.02,-4.62 m 0,0 7.2,-4.68 m 0,0 7.02,-4.86 m 0,0 7.14,-4.8 m 0,0 7.08,-4.86 m 0,0 7.02,-4.86 m 0,0 7.14,-4.8 m 0,0 7.08,-4.74 m 0,0 7.14,-4.68 m 0,0 7.08,-4.62 m 0,0 7.14,-4.56 m 0,0 7.02,-4.44 m 0,0 7.08,-4.32 m 0,0 7.14,-4.32 m 0,0 7.02,-4.08 m 0,0 2.34,-1.32 m -151.2,69.3 7.08,-3.18 m 0,0 7.14,-3.72 m 0,0 7.02,-3.9 m 0,0 7.08,-4.14 m 0,0 7.14,-4.08 m 0,0 7.08,-4.38 m 0,0 7.02,-4.38 m 0,0 7.2,-4.26 m 0,0 7.02,-4.32 m 0,0 7.14,-4.32 m 0,0 7.08,-4.32 m 0,0 7.02,-4.2 m 0,0 7.14,-4.2 m 0,0 7.08,-4.02 m 0,0 7.14,-4.02 m 0,0 7.08,-3.96 m 0,0 7.14,-3.84 m 0,0 0.06,-0.06 m -120.66,47.52 7.08,-3.6 m 0,0 7.14,-3.78 m 0,0 7.02,-3.9 m 0,0 7.08,-3.84 m 0,0 7.14,-3.9 m 0,0 7.08,-3.9 m 0,0 7.02,-3.84 m 0,0 7.2,-3.96 m 0,0 7.02,-3.72 7.14,-3.78 m 0,0 7.08,-3.72 m 0,0 7.02,-3.66 m 0,0 3.96,-1.92 m -88.98,27.48 7.08,-3.54 m 0,0 7.14,-3.42 m 0,0 7.02,-3.6 m 0,0 7.08,-3.54 m 0,0 7.14,-3.42 m 0,0 7.08,-3.42 m 0,0 7.02,-3.36 m 0,0 6.6,-3.18 m -56.16,9.84 7.08,-3.18 m 0,0 7.14,-2.88 m 0,0 7.02,-2.94 m 0,0 2.04,-0.84"
       style="fill:none;stroke:#000000;stroke-width:0.41800001;stroke-linecap:round;stroke-linejoin:round;stroke-miterlimit:10;stroke-opacity:1;stroke-dasharray:none"
       id="path60"
       inkscape:connector-curvature="0" /><path
       d="m 94.8,573.56 0.06,-115.5 m -1.44,0 1.38,0 m -1.38,23.16 1.38,0 m -1.38,23.04 1.38,0 m -1.38,23.16 1.38,0 m -1.38,23.04 1.38,0 m 0,-92.4 283.56,0 m -283.56,-0.9 0.06,0.9 m 28.26,-0.9 0,0.9 m 28.44,-0.9 0,0.9 m 28.26,-0.9 0.12,0.9 m 28.32,-0.9 0,0.9 m 28.38,-0.9 0.06,0.9 m 28.26,-0.9 0,0.9 m 28.38,-0.9 0,0.9 m 28.32,-0.9 0,0.9 m 28.38,-0.9 0,0.9 m 28.32,-0.9 0.12,0.9"
       style="fill:none;stroke:#000000;stroke-width:0.06;stroke-linecap:round;stroke-linejoin:miter;stroke-miterlimit:10;stroke-opacity:1;stroke-dasharray:none"
       id="path74"
       inkscape:connector-curvature="0" /><path
       d="m 275.4,573.56 3.72,-5.34 m 0,0 7.08,-10.08 m 0,0 7.14,-9.72 m 0,0 7.02,-9.36 m 0,0 7.2,-9.06 m 0,0 7.02,-8.58 m 0,0 7.08,-8.28 m 0,0 7.14,-7.98 m 0,0 7.02,-7.62 m 0,0 7.08,-7.26 m 0,0 4.28499,-4.17697 L 350.04,483.32 m 0,0 7.08,-6.72 m 0,0 7.02,-6.42 m 0,0 7.2,-6.12 m 0,0 7.02,-6 M 246,573.56 l 4.74,-6.6 m 0,0 7.02,-9.42 m 0,0 7.2,-9.18 m 0,0 7.02,-8.88 m 0,0 7.14,-8.58 m 0,0 7.08,-8.34 m 0,0 7.14,-7.92 m 0,0 7.02,-7.68 m 0,0 7.2,-7.5 m 0,0 7.02,-7.08 m 0,0 7.08,-6.78 m 0,0 7.14,-6.24 m 0,0 7.02,-5.16 m 0,0 7.08,-4.2 m 0,0 7.14,-3.36 m 0,0 7.08,-2.58 m 0,0 7.02,-1.8 m 0,0 7.2,-1.02 m 0,0 7.02,-0.36 m -162.96,112.68 7.02,-9.06 m 0,0 7.08,-8.88 m 0,0 7.14,-8.64 m 0,0 7.02,-8.34 m 0,0 7.08,-8.16 m 0,0 7.02,-7.92 m 0,0 7.2,-7.56 m 0,0 7.02,-7.2 m 0,0 7.14,-6.36 m 0,0 7.08,-5.88 m 0,0 7.14,-5.4 m 0,0 7.02,-4.68 m 0,0 7.2,-4.2 m 0,0 7.02,-3.6 m 0,0 7.08,-3.18 m 0,0 7.14,-2.76 m 0,0 7.02,-2.34 m 0,0 7.08,-1.92 m 0,0 7.14,-1.5 m 0,0 7.08,-1.26 m 0,0 7.02,-0.84 m 0,0 7.2,-0.54 m 0,0 7.02,-0.24 m -194.58,110.46 3.18,-3.9 m 0,0 7.08,-8.46 m 0,0 7.14,-8.4 m 0,0 7.08,-8.04 m 0,0 7.14,-7.8 m 0,0 7.02,-7.14 m 0,0 7.08,-6.78 m 0,0 7.14,-6.18 m 0,0 7.02,-5.82 m 0,0 7.08,-5.34 m 0,0 7.02,-4.98 m 0,0 7.2,-4.5 m 0,0 7.02,-4.08 m 0,0 7.14,-3.78 m 0,0 7.08,-3.54 m 0,0 7.14,-3 m 0,0 7.02,-2.88 m 0,0 7.2,-2.4 m 0,0 7.02,-2.28 m 0,0 7.08,-1.92 m 0,0 7.14,-1.62 m 0,0 7.02,-1.5 m 0,0 7.08,-1.26 m 0,0 7.14,-0.9 m 0,0 7.08,-0.78 m 0,0 7.02,-0.54 m 0,0 7.2,-0.42 m 0,0 7.02,-0.3 m -227.4,108.54 0.6,-0.6 m 0,0 7.02,-7.92 m 0,0 7.14,-7.62 m 0,0 7.08,-7.08 m 0,0 7.02,-6.78 m 0,0 7.14,-6.36 m 0,0 7.08,-6.06 m 0,0 7.14,-5.7 m 0,0 7.08,-5.28 m 0,0 7.14,-4.98 m 0,0 7.02,-4.62 m 0,0 7.08,-4.44 m 0,0 7.14,-4.14 m 0,0 7.02,-3.72 m 0,0 7.08,-3.54 m 0,0 7.02,-3.3 m 0,0 7.2,-3 m 0,0 7.02,-2.76 m 0,0 7.14,-2.52 m 0,0 7.08,-2.34 m 0,0 7.14,-2.1 m 0,0 7.02,-1.98 m 0,0 7.2,-1.68 m 0,0 7.02,-1.56 m 0,0 7.08,-1.38 m 0,0 7.14,-1.2 m 0,0 7.02,-0.9 m 0,0 7.08,-0.96 m 0,0 7.14,-0.72 m 0,0 7.08,-0.66 m 0,0 7.02,-0.42 m 0,0 7.2,-0.36 m 0,0 7.02,-0.18 m -260.28,106.86 5.04,-4.92 m 0,0 7.14,-6.48 m 0,0 7.08,-6.24 m 0,0 7.02,-6.06 m 0,0 7.2,-5.7 m 0,0 7.02,-5.52 m 0,0 7.14,-5.22 m 0,0 7.08,-4.92 m 0,0 7.02,-4.8 m 0,0 7.14,-4.32 m 0,0 7.08,-4.2 m 0,0 7.14,-4.02 m 0,0 7.08,-3.72 m 0,0 7.14,-3.6 m 0,0 7.02,-3.24 m 0,0 7.08,-3.18 m 0,0 7.14,-2.94 m 0,0 7.02,-2.7 m 0,0 7.08,-2.52 m 0,0 7.02,-2.4 m 0,0 7.2,-2.22 m 0,0 7.02,-1.98 m 0,0 7.14,-1.86 m 0,0 7.08,-1.74 m 0,0 7.14,-1.62 m 0,0 7.02,-1.44 m 0,0 7.2,-1.26 m 0,0 7.02,-1.14 m 0,0 7.08,-1.08 m 0,0 7.14,-0.84 m 0,0 7.02,-0.84 m 0,0 7.08,-0.66 m 0,0 7.14,-0.72 m 0,0 7.08,-0.42 m 0,0 7.02,-0.42 m 0,0 7.2,-0.3 m 0,0 7.02,-0.18 M 94.8,566.3 l 7.08,-5.64 m 0,0 7.14,-5.28 m 0,0 7.02,-5.16 m 0,0 7.08,-5.04 m 0,0 7.14,-4.8 m 0,0 7.08,-4.62 m 0,0 7.02,-4.32 m 0,0 7.2,-4.32 m 0,0 7.02,-3.9 m 0,0 7.14,-3.96 m 0,0 7.08,-3.6 m 0,0 7.02,-3.42 m 0,0 7.14,-3.3 m 0,0 7.08,-3.24 m 0,0 7.14,-2.88 m 0,0 7.08,-2.94 m 0,0 7.14,-2.58 m 0,0 7.02,-2.52 m 0,0 7.08,-2.34 m 0,0 7.14,-2.28 m 0,0 7.02,-1.98 m 0,0 7.08,-1.92 m 0,0 7.02,-1.86 m 0,0 7.2,-1.68 m 0,0 7.02,-1.56 m 0,0 7.14,-1.56 m 0,0 7.08,-1.26 m 0,0 7.14,-1.26 m 0,0 7.02,-1.14 m 0,0 7.2,-1.02 m 0,0 7.02,-1.02 m 0,0 7.08,-0.84 m 0,0 7.14,-0.72 m 0,0 7.02,-0.6 m 0,0 7.08,-0.66 m 0,0 7.14,-0.48 m 0,0 7.08,-0.42 m 0,0 7.02,-0.36 m 0,0 7.2,-0.24 m 0,0 7.02,-0.18 m -283.56,76.92 7.08,-4.26 m 0,0 7.14,-4.02 m 0,0 7.02,-4.02 m 0,0 7.08,-3.72 m 0,0 7.14,-3.72"
       style="fill:none;stroke:#000000;stroke-width:0.41800001;stroke-linecap:round;stroke-linejoin:round;stroke-miterlimit:10;stroke-opacity:1;stroke-dasharray:none"
       id="path76"
       inkscape:connector-curvature="0"
       sodipodi:nodetypes="ccccccccccccccccccccccccccccccccccccccccccccccccccccccccccccccccccccccccccccccccccccccccccccccccccccccccccccccccccccccccccccccccccccccccccccccccccccccccccccccccccccccccccccccccccccccccccccccccccccccccccccccccccccccccccccccccccccccccccccccccccccccccccccccccccccccccccccccccccccccccccccccccccccccccccccccccccccccccccccccccccccccccccccccccccccccccccccccccccccccccccccccccccccccccccccccccccccccccccccccccc" /><path
       d="m 130.26,526.58 7.08,-3.48 m 0,0 7.02,-3.36 m 0,0 7.2,-3.24 m 0,0 7.02,-3.12 m 0,0 7.14,-3 m 0,0 7.08,-2.7 m 0,0 7.02,-2.76 m 0,0 7.14,-2.58 m 0,0 7.08,-2.46 m 0,0 7.14,-2.34 m 0,0 7.08,-2.16 m 0,0 7.14,-2.1 m 0,0 7.02,-1.92 m 0,0 7.08,-1.92 m 0,0 7.14,-1.68 m 0,0 7.02,-1.74 m 0,0 7.08,-1.56 m 0,0 7.02,-1.5 m 0,0 7.2,-1.32 m 0,0 7.02,-1.26 m 0,0 7.14,-1.2 m 0,0 7.08,-1.08 m 0,0 7.14,-1.08 m 0,0 7.02,-0.9 m 0,0 7.2,-0.84 m 0,0 7.02,-0.78 m 0,0 7.08,-0.72 m 0,0 7.14,-0.6 m 0,0 7.02,-0.6 m 0,0 7.08,-0.48 m 0,0 7.14,-0.42 m 0,0 7.08,-0.42 m 0,0 7.02,-0.36 m 0,0 7.2,-0.3 m 0,0 7.14,-0.12 M 94.86,533 l 7.02,-3.24 m 0,0 7.14,-3.3 m 0,0 7.08,-3.18 m 0,0 7.02,-2.94 m 0,0 7.2,-2.94 m 0,0 7.02,-2.76 m 0,0 7.14,-2.64 m 0,0 7.08,-2.7 m 0,0 7.14,-2.46 m 0,0 7.02,-2.34 m 0,0 7.08,-2.22 m 0,0 7.14,-2.1 m 0,0 7.02,-2.22 m 0,0 7.2,-1.92 m 0,0 7.02,-1.86 m 0,0 7.08,-1.8 m 0,0 7.14,-1.68 m 0,0 7.08,-1.68 m 0,0 7.02,-1.44 m 0,0 7.2,-1.5 m 0,0 7.02,-1.32 m 0,0 7.02,-1.26 m 0,0 7.14,-1.26 m 0,0 7.08,-1.2 m 0,0 7.14,-1.02 m 0,0 7.02,-1.08 m 0,0 7.08,-0.84 m 0,0 7.14,-0.84 m 0,0 7.08,-0.84 m 0,0 7.14,-0.66 m 0,0 7.08,-0.72 m 0,0 7.02,-0.6 m 0,0 7.14,-0.6 m 0,0 7.08,-0.48 m 0,0 7.02,-0.42 m 0,0 7.14,-0.42 m 0,0 7.08,-0.36 7.14,-0.36 m 0,0 7.08,-0.24 m 0,0 7.14,-0.12 m -283.62,45.48 7.02,-2.16 m 0,0 7.14,-2.28 m 0,0 7.08,-2.1 m 0,0 7.02,-2.1 m 0,0 7.2,-1.92 m 0,0 7.02,-1.92 m 0,0 7.14,-1.86 m 0,0 7.08,-1.74 m 0,0 7.14,-1.68 m 0,0 7.02,-1.74 m 0,0 7.08,-1.44 m 0,0 7.14,-1.62 m 0,0 7.02,-1.5 m 0,0 7.2,-1.32 m 0,0 7.02,-1.38 m 0,0 7.08,-1.32 m 0,0 7.14,-1.08 m 0,0 7.08,-1.2 m 0,0 7.02,-1.14 m 0,0 7.2,-1.02 m 0,0 7.02,-1.02 m 0,0 7.02,-0.9 m 0,0 7.14,-0.9 m 0,0 7.08,-0.84 m 0,0 7.14,-0.78 m 0,0 7.02,-0.78 m 0,0 7.08,-0.66 m 0,0 7.14,-0.66 m 0,0 7.08,-0.66 m 0,0 7.14,-0.48 m 0,0 7.08,-0.6 m 0,0 7.02,-0.54 m 0,0 7.14,-0.42 m 0,0 7.08,-0.42 m 0,0 7.02,-0.42 m 0,0 7.14,-0.24 m 0,0 7.08,-0.3 7.14,-0.3 m 0,0 7.08,-0.24 m 0,0 7.14,-0.18 m -283.62,34.92 7.02,-1.56 m 0,0 7.14,-1.68 m 0,0 7.08,-1.56 m 0,0 7.02,-1.5 m 0,0 7.2,-1.44 m 0,0 7.02,-1.32 m 0,0 7.14,-1.5 m 0,0 7.08,-1.26 m 0,0 7.14,-1.26 m 0,0 7.02,-1.26 m 0,0 7.08,-1.26 m 0,0 7.14,-1.02 m 0,0 7.02,-1.08 m 0,0 7.2,-1.08 m 0,0 7.02,-1.14 m 0,0 7.08,-0.9 m 0,0 7.14,-0.9 m 0,0 7.08,-0.84 m 0,0 7.02,-0.96 m 0,0 7.2,-0.72 m 0,0 7.02,-0.78 m 0,0 7.02,-0.84 m 0,0 7.14,-0.66 m 0,0 7.08,-0.6 m 0,0 7.14,-0.66 m 0,0 7.02,-0.66 m 0,0 7.08,-0.48 m 0,0 7.14,-0.54 m 0,0 7.08,-0.6 m 0,0 7.14,-0.42 m 0,0 7.08,-0.42 m 0,0 7.02,-0.36 m 0,0 7.14,-0.42 m 0,0 7.08,-0.36 7.02,-0.36 m 0,0 7.14,-0.24 7.08,-0.24 m 0,0 7.14,-0.36 m 0,0 7.08,-0.12 m 0,0 7.14,-0.18 m -283.62,26.16 7.02,-1.14 m 0,0 7.14,-1.08 m 0,0 7.08,-1.08 m 0,0 7.02,-1.14 m 0,0 7.2,-0.96 m 0,0 7.02,-0.9 m 0,0 7.14,-0.96 m 0,0 7.08,-0.96 m 0,0 7.14,-0.96 m 0,0 7.02,-0.84 m 0,0 7.08,-0.84 m 0,0 7.14,-0.84 m 0,0 7.02,-0.84 m 0,0 7.2,-0.72 m 0,0 7.02,-0.66 m 0,0 7.08,-0.66 m 0,0 7.14,-0.78 m 0,0 7.08,-0.6 m 0,0 7.02,-0.66 m 0,0 7.2,-0.6 m 0,0 7.02,-0.6 m 0,0 7.02,-0.48 m 0,0 7.14,-0.6 m 0,0 7.08,-0.48 m 0,0 7.14,-0.48 m 0,0 7.02,-0.42 m 0,0 7.08,-0.54 m 0,0 7.14,-0.42 m 0,0 7.08,-0.3 m 0,0 7.14,-0.42 m 0,0 7.08,-0.3 m 0,0 7.02,-0.42 m 0,0 7.14,-0.3 m 0,0 7.08,-0.24 m 0,0 7.02,-0.3 m 0,0 7.14,-0.24 7.08,-0.24 7.14,-0.24 m 0,0 7.08,-0.18 7.14,-0.18 m -283.62,18.9 7.02,-0.78 m 0,0 7.14,-0.66 m 0,0 7.08,-0.66 m 0,0 7.02,-0.78 m 0,0 7.2,-0.66"
       style="fill:none;stroke:#000000;stroke-width:0.41800001;stroke-linecap:round;stroke-linejoin:round;stroke-miterlimit:10;stroke-opacity:1;stroke-dasharray:none"
       id="path78"
       inkscape:connector-curvature="0" /><path
       d="m 130.32,491.36 7.02,-0.6 m 0,0 7.14,-0.6 m 0,0 7.08,-0.54 m 0,0 7.14,-0.72 m 0,0 7.02,-0.48 m 0,0 7.08,-0.66 m 0,0 7.14,-0.42 m 0,0 7.02,-0.6 m 0,0 7.2,-0.42 m 0,0 7.02,-0.48 m 0,0 7.08,-0.54 m 0,0 7.14,-0.48 m 0,0 7.08,-0.48 m 0,0 7.02,-0.36 m 0,0 7.2,-0.42 m 0,0 7.02,-0.42 7.02,-0.42 m 0,0 7.14,-0.42 m 0,0 7.08,-0.3 m 0,0 7.14,-0.36 m 0,0 7.02,-0.36 m 0,0 7.08,-0.24 m 0,0 7.14,-0.3 7.08,-0.3 m 0,0 7.14,-0.42 m 0,0 7.08,-0.24 m 0,0 7.02,-0.18 m 0,0 7.14,-0.24 7.08,-0.24 7.02,-0.24 m 0,0 7.14,-0.24 m 0,0 7.08,-0.18 7.14,-0.18 7.08,-0.18 m 0,0 7.02,-0.18"
       style="fill:none;stroke:#000000;stroke-width:0.41800001;stroke-linecap:round;stroke-linejoin:round;stroke-miterlimit:10;stroke-opacity:1;stroke-dasharray:none"
       id="path80"
       inkscape:connector-curvature="0" /><text
       transform="matrix(1,0,0,-1,85.56,456.5603)"
       id="text82"><tspan
         style="font-size:4.19040012px;font-variant:normal;font-weight:normal;font-stretch:normal;writing-mode:lr-tb;fill:#000000;fill-opacity:1;fill-rule:nonzero;stroke:none;font-family:Arial;-inkscape-font-specification:Helvetica"
         x="0 2.3395004 3.5392118"
         y="0"
         sodipodi:role="line"
         id="tspan84">1.0</tspan><tspan
         style="font-size:4.19040012px;font-variant:normal;font-weight:normal;font-stretch:normal;writing-mode:lr-tb;fill:#000000;fill-opacity:1;fill-rule:nonzero;stroke:none;font-family:Arial;-inkscape-font-specification:Helvetica"
         x="0 2.3395004 3.5392118"
         y="-22.380926"
         sodipodi:role="line"
         id="tspan86">1.1</tspan><tspan
         style="font-size:4.19040012px;font-variant:normal;font-weight:normal;font-stretch:normal;writing-mode:lr-tb;fill:#000000;fill-opacity:1;fill-rule:nonzero;stroke:none;font-family:Arial;-inkscape-font-specification:Helvetica"
         x="0 2.3395004 3.5392118"
         y="-46.081829"
         sodipodi:role="line"
         id="tspan88">1.2</tspan><tspan
         style="font-size:4.19040012px;font-variant:normal;font-weight:normal;font-stretch:normal;writing-mode:lr-tb;fill:#000000;fill-opacity:1;fill-rule:nonzero;stroke:none;font-family:Arial;-inkscape-font-specification:Helvetica"
         x="0 2.3395004 3.5392118"
         y="-69.183502"
         sodipodi:role="line"
         id="tspan90">1.3</tspan><tspan
         style="font-size:4.19040012px;font-variant:normal;font-weight:normal;font-stretch:normal;writing-mode:lr-tb;fill:#000000;fill-opacity:1;fill-rule:nonzero;stroke:none;font-family:Arial;-inkscape-font-specification:Helvetica"
         x="0 2.3395004 3.5392118"
         y="-92.104996"
         sodipodi:role="line"
         id="tspan92">1.4</tspan><tspan
         style="font-size:4.19040012px;font-variant:normal;font-weight:normal;font-stretch:normal;writing-mode:lr-tb;fill:#000000;fill-opacity:1;fill-rule:nonzero;stroke:none;font-family:Arial;-inkscape-font-specification:Helvetica"
         x="0 2.3395004 3.5392118"
         y="-114.48592"
         sodipodi:role="line"
         id="tspan94">1.5</tspan><tspan
         style="font-size:4.19040012px;font-variant:normal;font-weight:normal;font-stretch:normal;writing-mode:lr-tb;fill:#000000;fill-opacity:1;fill-rule:nonzero;stroke:none;font-family:Arial;-inkscape-font-specification:Helvetica"
         x="7.3206286 8.7009468 33.900337 35.280655 37.679237 38.820705 62.219059 63.653851 65.993774 67.19809 90.596451 92.031242 94.371162 95.512627 118.91098 120.34577 122.68569 123.89001 149.86966 176.3907 178.73062 179.93494 204.77228 207.1122 208.25366 233.091 235.43092 236.63524 261.53543 263.87537 265.07547 291.65604"
         y="6.7130208"
         sodipodi:role="line"
         id="tspan96">-1-0.8-0.6-0.4-0.200.20.40.60.81</tspan></text>
<g
       id="g98"><g
         id="g100"
         clip-path="url(#clipPath102)"><text
           transform="matrix(1,0,0,-1,247.74,438.6803)"
           id="text106"><tspan
             style="font-size:9.80560017px;font-variant:normal;font-weight:normal;font-stretch:normal;writing-mode:lr-tb;fill:#000000;fill-opacity:1;fill-rule:nonzero;stroke:none;font-family:Symbol;-inkscape-font-specification:SymbolMT"
             x="0"
             y="0"
             id="tspan108">ψ</tspan></text>
</g></g><path
       d="m 285.12,552.44 4.86,0 0,6.48 -4.86,0 0,-6.48 z"
       style="fill:#ffffff;fill-opacity:1;fill-rule:nonzero;stroke:none"
       id="path112"
       inkscape:connector-curvature="0" /><text
       transform="matrix(1,0,0,-1,285.12,554.3604)"
       id="text114"><tspan
         style="font-size:4.19040012px;font-variant:normal;font-weight:normal;font-stretch:normal;writing-mode:lr-tb;fill:#000000;fill-opacity:1;fill-rule:nonzero;stroke:none;font-family:Arial;-inkscape-font-specification:Helvetica"
         x="0"
         y="0"
         id="tspan116">0</tspan></text>
<path
       d="m 105.12,500.9 8.88,0 0,6.48 -8.88,0 0,-6.48 z"
       style="fill:#ffffff;fill-opacity:1;fill-rule:nonzero;stroke:none"
       id="path118"
       inkscape:connector-curvature="0" /><text
       transform="matrix(1,0,0,-1,105.12,502.8203)"
       id="text120"><tspan
         style="font-size:4.19040012px;font-variant:normal;font-weight:normal;font-stretch:normal;writing-mode:lr-tb;fill:#000000;fill-opacity:1;fill-rule:nonzero;stroke:none;font-family:Arial;-inkscape-font-specification:Helvetica"
         x="0 2.3395004 3.5392118"
         y="0"
         sodipodi:role="line"
         id="tspan122">1,2</tspan></text>
<path
       d="m 123.36,514.4 8.88,0 0,6.48 -8.88,0 0,-6.48 z"
       style="fill:#ffffff;fill-opacity:1;fill-rule:nonzero;stroke:none"
       id="path124"
       inkscape:connector-curvature="0" /><text
       transform="matrix(1,0,0,-1,123.36,516.3203)"
       id="text126"><tspan
         style="font-size:4.19040012px;font-variant:normal;font-weight:normal;font-stretch:normal;writing-mode:lr-tb;fill:#000000;fill-opacity:1;fill-rule:nonzero;stroke:none;font-family:Arial;-inkscape-font-specification:Helvetica"
         x="0 2.3395004 3.5392118"
         y="0"
         sodipodi:role="line"
         id="tspan128">0,8</tspan></text>
<path
       d="m 130.92,521.18 8.94,0 0,6.48 -8.94,0 0,-6.48 z"
       style="fill:#ffffff;fill-opacity:1;fill-rule:nonzero;stroke:none"
       id="path130"
       inkscape:connector-curvature="0" /><text
       transform="matrix(1,0,0,-1,130.92,523.1003)"
       id="text132"><tspan
         style="font-size:4.19040012px;font-variant:normal;font-weight:normal;font-stretch:normal;writing-mode:lr-tb;fill:#000000;fill-opacity:1;fill-rule:nonzero;stroke:none;font-family:Arial;-inkscape-font-specification:Helvetica"
         x="0 2.3395004 3.4805462"
         y="0"
         sodipodi:role="line"
         id="tspan134">0,7</tspan></text>
<path
       d="m 171.24,542.72 8.82,0 0,6.48 -8.82,0 0,-6.48 z"
       style="fill:#ffffff;fill-opacity:1;fill-rule:nonzero;stroke:none"
       id="path136"
       inkscape:connector-curvature="0" /><text
       transform="matrix(1,0,0,-1,171.24,544.6403)"
       id="text138"><tspan
         style="font-size:4.19040012px;font-variant:normal;font-weight:normal;font-stretch:normal;writing-mode:lr-tb;fill:#000000;fill-opacity:1;fill-rule:nonzero;stroke:none;font-family:Arial;-inkscape-font-specification:Helvetica"
         x="0 2.3395004 3.4805462"
         y="0"
         sodipodi:role="line"
         id="tspan140">0,4</tspan></text>
<path
       d="m 120.06,504.92 4.8,0 0,6.48 -4.8,0 0,-6.48 z"
       style="fill:#ffffff;fill-opacity:1;fill-rule:nonzero;stroke:none"
       id="path142"
       inkscape:connector-curvature="0" /><text
       transform="matrix(1,0,0,-1,120.06,506.8403)"
       id="text144"><tspan
         style="font-size:4.19040012px;font-variant:normal;font-weight:normal;font-stretch:normal;writing-mode:lr-tb;fill:#000000;fill-opacity:1;fill-rule:nonzero;stroke:none;font-family:Arial;-inkscape-font-specification:Helvetica"
         x="0"
         y="0"
         id="tspan146">1</tspan></text>
<path
       d="m 153.48,535.1 8.88,0 0,6.48 -8.88,0 0,-6.48 z"
       style="fill:#ffffff;fill-opacity:1;fill-rule:nonzero;stroke:none"
       id="path148"
       inkscape:connector-curvature="0" /><text
       transform="matrix(1,0,0,-1,153.48,537.0203)"
       id="text150"><tspan
         style="font-size:4.19040012px;font-variant:normal;font-weight:normal;font-stretch:normal;writing-mode:lr-tb;fill:#000000;fill-opacity:1;fill-rule:nonzero;stroke:none;font-family:Arial;-inkscape-font-specification:Helvetica"
         x="0 2.3395004 3.5392118"
         y="0"
         sodipodi:role="line"
         id="tspan152">0,5</tspan></text>
<path
       d="m 139.26,528.68 8.88,0 0,6.42 -8.88,0 0,-6.42 z"
       style="fill:#ffffff;fill-opacity:1;fill-rule:nonzero;stroke:none"
       id="path154"
       inkscape:connector-curvature="0" /><text
       transform="matrix(1,0,0,-1,139.26,530.6003)"
       id="text156"><tspan
         style="font-size:4.19040012px;font-variant:normal;font-weight:normal;font-stretch:normal;writing-mode:lr-tb;fill:#000000;fill-opacity:1;fill-rule:nonzero;stroke:none;font-family:Arial;-inkscape-font-specification:Helvetica"
         x="0 2.3395004 3.5392118"
         y="0"
         sodipodi:role="line"
         id="tspan158">0,6</tspan></text>
<path
       d="m 195.3,550.88 8.94,0 0,6.42 -8.94,0 0,-6.42 z"
       style="fill:#ffffff;fill-opacity:1;fill-rule:nonzero;stroke:none"
       id="path160"
       inkscape:connector-curvature="0" /><text
       transform="matrix(1,0,0,-1,195.3,552.8003)"
       id="text162"><tspan
         style="font-size:4.19040012px;font-variant:normal;font-weight:normal;font-stretch:normal;writing-mode:lr-tb;fill:#000000;fill-opacity:1;fill-rule:nonzero;stroke:none;font-family:Arial;-inkscape-font-specification:Helvetica"
         x="0 2.3395004 3.5392118"
         y="0"
         sodipodi:role="line"
         id="tspan164">0,3</tspan></text>
<path
       d="m 256.08,552.8 8.88,0 0,6.42 -8.88,0 0,-6.42 z"
       style="fill:#ffffff;fill-opacity:1;fill-rule:nonzero;stroke:none"
       id="path166"
       inkscape:connector-curvature="0" /><text
       transform="matrix(1,0,0,-1,256.08,554.7203)"
       id="text168"><tspan
         style="font-size:4.19040012px;font-variant:normal;font-weight:normal;font-stretch:normal;writing-mode:lr-tb;fill:#000000;fill-opacity:1;fill-rule:nonzero;stroke:none;font-family:Arial;-inkscape-font-specification:Helvetica"
         x="0 2.3395004 3.5392118"
         y="0"
         sodipodi:role="line"
         id="tspan170">0,1</tspan></text>
<path
       d="m 225.24,551.6 8.88,0 0,6.48 -8.88,0 0,-6.48 z"
       style="fill:#ffffff;fill-opacity:1;fill-rule:nonzero;stroke:none"
       id="path172"
       inkscape:connector-curvature="0" /><text
       transform="matrix(1,0,0,-1,225.24,553.5203)"
       id="text174"><tspan
         style="font-size:4.19040012px;font-variant:normal;font-weight:normal;font-stretch:normal;writing-mode:lr-tb;fill:#000000;fill-opacity:1;fill-rule:nonzero;stroke:none;font-family:Arial;-inkscape-font-specification:Helvetica"
         x="0 2.3395004 3.5392118"
         y="0"
         sodipodi:role="line"
         id="tspan176">0,2</tspan></text>
<path
       d="m 105.84,489.86 4.8,0 0,6.42 -4.8,0 0,-6.42 z"
       style="fill:#ffffff;fill-opacity:1;fill-rule:nonzero;stroke:none"
       id="path178"
       inkscape:connector-curvature="0" /><text
       transform="matrix(1,0,0,-1,105.84,491.7803)"
       id="text180"><tspan
         style="font-size:4.19040012px;font-variant:normal;font-weight:normal;font-stretch:normal;writing-mode:lr-tb;fill:#000000;fill-opacity:1;fill-rule:nonzero;stroke:none;font-family:Arial;-inkscape-font-specification:Helvetica"
         x="0"
         y="0"
         id="tspan182">2</tspan></text>
<path
       d="m 116.88,492.8 8.82,0 0,6.42 -8.82,0 0,-6.42 z"
       style="fill:#ffffff;fill-opacity:1;fill-rule:nonzero;stroke:none"
       id="path184"
       inkscape:connector-curvature="0" /><text
       transform="matrix(1,0,0,-1,116.88,494.7203)"
       id="text186"><tspan
         style="font-size:4.19040012px;font-variant:normal;font-weight:normal;font-stretch:normal;writing-mode:lr-tb;fill:#000000;fill-opacity:1;fill-rule:nonzero;stroke:none;font-family:Arial;-inkscape-font-specification:Helvetica"
         x="0 2.3395004 3.4805462"
         y="0"
         sodipodi:role="line"
         id="tspan188">1,5</tspan></text>
<path
       d="m 371.94,478.52 4.86,0 0,6.48 -4.86,0 0,-6.48 z"
       style="fill:#ffffff;fill-opacity:1;fill-rule:nonzero;stroke:none"
       id="path190"
       inkscape:connector-curvature="0" /><text
       transform="matrix(1,0,0,-1,371.94,480.4403)"
       id="text192"><tspan
         style="font-size:4.19040012px;font-variant:normal;font-weight:normal;font-stretch:normal;writing-mode:lr-tb;fill:#000000;fill-opacity:1;fill-rule:nonzero;stroke:none;font-family:Arial;-inkscape-font-specification:Helvetica"
         x="0"
         y="0"
         id="tspan194">2</tspan></text>
<text
       transform="matrix(1,0,0,-1,304.26,553.9403)"
       id="text412"><tspan
         style="font-size:9.80560017px;font-variant:normal;font-weight:normal;font-stretch:normal;writing-mode:lr-tb;fill:#000000;fill-opacity:1;fill-rule:nonzero;stroke:#000000;stroke-width:0.19599999;stroke-linecap:butt;stroke-linejoin:miter;stroke-miterlimit:1;stroke-opacity:1;stroke-dasharray:none;font-family:Symbol;-inkscape-font-specification:SymbolMT"
         x="0"
         y="0"
         id="tspan414">μ</tspan></text>
<g
       id="g844" /><g
       id="g850" /><g
       id="g860"
       transform="matrix(0,1,-1,0,45,5)" /><g
       id="g866" /></g></svg>