
Dimensione   Spessore    Massa     Area        della     Momento   Raggio       Modulo   Momento    Modulo
esterna      lineare     sezione   d'inerzia   di        di        d'inerzia    di
lati         metallica   di        fl          essione   inerzia   resistenza   di       torsione   torsione
b            s           M         A         I           i         W         J            C

30	2.0	1.76	2.24	2.923	1.142	1.949	4.519	2.759
3.0	2.47	3.14	3.740	1.090	2.500	6.160	3.600
4.0	3.27	4.16	4.665	1.059	3.110	7.432	4.214
5.0	3.93	5.00	5.172	1.017	3.448	8.350	4.587
6.0	4.52	5.76	5.480	0.975	3.653	8.938	4.774
40	2.9	3.31	4.21	9.540	1.500	4.770	15.300	6.930
3.2	3.61	4.60	10.200	1.490	5.110	16.500	7.420
4.0	4.39	5.59	11.800	1.450	5.910	19.500	8.540
5.0	5.28	6.73	13.400	1.410	6.680	22.500	9.600
6.3	6.33	8.07	14.700	1.350	7.340	25.400	10.500
7.1	6.91	8.80	15.100	1.310	7.570	26.500	10.800
8.0	8.04	10.24	17.320	1.301	8.660	28.250	11.320
50	3.2	4.62	5.88	21.200	1.900	8.490	33.800	12.400
4.0	5.64	7.19	25.000	1.860	9.990	40.400	14.500
5.0	6.85	8.73	28.900	1.820	11.600	47.600	16.700
6.3	8.31	10.60	32.800	1.760	13.100	55.200	18.800
7.1	9.14	11.60	34.500	1.720	13.800	58.900	19.800
8.0	10.00	12.80	36.000	1.680	14.400	62.300	20.600
10.0	12.60	16.00	42.280	1.626	16.910	68.970	22.100
55	3.0	4.90	6.24	28.100	2.122	10.220	43.190	14.600
4.0	6.41	8.16	35.320	2.081	12.840	54.750	18.100
5.0	7.85	10.00	41.570	2.039	15.120	64.980	21.030
6.0	9.23	11.76	46.910	1.997	17.060	73.940	23.450
8.0	11.80	15.04	55.070	1.913	20.020	88.180	26.950
10.0	14.10	18.00	60.270	1.830	21.920	97.800	28.920
60	3.2	5.62	7.16	38.200	2.310	12.700	60.200	18.600
4.0	6.90	8.79	45.400	2.270	15.100	72.500	22.000
5.0	8.42	10.70	53.300	2.230	17.800	86.400	25.700
6.3	10.30	13.10	61.600	2.170	20.500	102.000	29.600
7.1	11.40	14.50	65.800	2.130	21.900	110.000	31.600
8.0	12.50	16.00	69.700	2.090	23.200	118.000	33.400
10.0	14.90	18.90	75.500	2.000	25.200	131.000	36.000
12.5	17.30	22.10	78.000	1.880	26.000	139.000	37.000
65	3.0	5.84	7.44	47.640	2.530	14.660	72.940	21.080
4.0	7.66	9.76	60.460	2.489	18.600	93.240	26.440
5.0	9.42	12.00	71.880	2.447	22.120	111.600	31.070
6.0	11.10	14.16	81.960	2.406	25.220	128.200	35.050
8.0	14.30	18.24	98.370	2.322	30.270	156.000	41.260
10.0	17.30	22.00	110.200	2.239	33.920	177.100	45.440
70	3.2	6.63	8.44	62.300	2.720	17.800	97.600	26.100
4.0	8.15	10.40	74.700	2.680	21.300	118.000	31.200
5.0	9.99	12.70	88.500	2.640	25.300	142.000	36.800
6.3	12.30	15.60	104.000	2.580	29.700	169.000	42.900
7.1	13.60	17.30	112.000	2.540	32.000	185.000	46.100
8.0	15.00	19.20	120.000	2.500	34.200	200.000	49.200
10.0	18.00	22.90	133.000	2.410	38.000	227.000	54.400
12.5	21.30	27.10	142.000	2.290	40.600	249.000	58.000
80	3.6	8.53	10.90	105.000	3.110	26.200	164.000	38.500
4.0	9.41	12.00	114.000	3.090	28.600	180.000	41.900
5.0	11.60	14.70	137.000	3.050	34.200	217.000	49.800
6.3	14.20	18.10	162.000	2.990	40.500	262.000	58.700
7.1	15.80	20.20	176.000	2.950	43.900	286.000	63.500
8.0	17.50	22.40	189.000	2.910	47.300	312.000	68.300
10.0	21.10	26.90	214.000	2.820	53.500	360.000	76.800
11.0	22.80	29.10	223.000	2.770	55.800	380.000	80.100
12.5	25.20	32.10	234.000	2.700	58.600	404.000	83.800
90	3.6	9.66	12.30	152.000	3.520	33.800	237.000	49.700
4.0	10.70	13.60	166.000	3.500	37.000	260.000	54.200
5.0	13.10	16.70	200.000	3.450	44.400	316.000	64.800
6.3	16.20	20.70	238.000	3.400	53.000	382.000	77.000
7.1	18.10	23.00	260.000	3.360	57.700	419.000	83.700
8.0	20.10	25.60	281.000	3.320	62.600	459.000	90.500
10.0	24.30	30.90	322.000	3.230	71.600	536.000	103.000
12.5	29.10	37.10	359.000	3.110	79.800	612.000	114.000
100	3.0	9.14	11.64	182.500	3.959	36.500	277.400	53.230
4.0	11.90	15.20	232.000	3.910	46.400	361.000	68.200
5.0	14.70	18.70	279.000	3.860	55.900	439.000	81.800
6.3	18.20	23.20	336.000	3.800	67.100	534.000	97.800
7.1	20.30	25.80	367.000	3.770	73.400	589.000	107.000
8.0	22.60	28.80	400.000	3.730	79.900	646.000	116.000
10.0	27.40	34.90	462.000	3.640	92.400	761.000	133.000
11.0	29.70	37.90	488.000	3.590	97.400	812.000	141.000
12.5	33.00	42.10	522.000	3.520	104.000	879.000	150.000
14.2	36.60	46.60	553.000	3.440	111.000	943.000	158.000
110	4.0	13.20	16.80	313.000	4.320	56.800	485.000	83.700
5.0	16.30	20.70	378.000	4.270	68.800	592.000	101.000
6.3	20.20	25.70	456.000	4.210	83.000	722.000	121.000
7.1	22.50	28.70	500.000	4.180	91.000	798.000	133.000
8.0	25.10	32.00	547.000	4.140	99.400	878.000	144.000
10.0	30.60	38.90	637.000	4.050	116.000	1040.000	168.000
11.0	34.20	43.56	709.600	4.036	129.000	1114.000	178.400
12.5	37.00	47.10	728.000	3.930	132.000	1210.000	191.000
14.2	41.00	52.30	776.000	3.850	141.000	1310.000	203.000
120	3.0	11.00	14.04	320.300	4.776	53.380	485.700	78.190
4.0	14.40	18.40	410.000	4.720	68.400	635.000	101.000
5.0	17.80	22.70	498.000	4.680	83.000	777.000	122.000
6.3	22.20	28.20	603.000	4.620	100.000	950.000	147.000
7.1	24.10	31.50	663.000	4.590	110.000	1050.000	161.000
8.0	27.60	35.20	726.000	4.550	121.000	1160.000	176.000
10.0	33.70	42.90	852.000	4.460	142.000	1382.000	206.000
11.0	36.60	46.70	908.000	4.410	151.000	1480.000	219.000
12.5	40.90	52.10	982.000	4.340	164.000	1620.000	236.000
14.2	45.50	57.90	1050.000	4.260	176.000	1760.000	253.000
130	5.0	19.40	24.70	640.000	5.090	98.500	996.000	145.000
6.3	24.10	30.70	778.000	5.030	120.000	1220.000	175.000
7.1	27.00	34.40	857.000	4.990	132.000	1350.000	193.000
8.0	30.10	38.40	941.000	4.950	145.000	1500.000	211.000
10.0	36.80	46.90	1110.000	4.860	171.000	1790.000	248.000
11.0	40.10	51.10	1190.000	4.820	182.000	1930.000	264.000
12.5	44.80	57.10	1290.000	4.750	198.000	2110.000	286.000
14.2	49.90	63.60	1390.000	4.670	214.000	2310.000	308.000
16.0	55.10	70.20	1480.000	4.590	228.000	2490.000	327.000
140	4.0	17.10	21.76	670.600	5.552	95.800	1019.000	139.900
5.0	21.00	26.70	807.000	5.500	115.000	1250.000	170.000
6.3	26.10	33.30	984.000	5.440	141.000	1540.000	206.000
7.1	29.20	37.20	1090.000	5.400	155.000	1710.000	227.000
8.0	32.60	41.60	1200.000	5.360	171.000	1890.000	249.000
10.0	40.00	50.90	1420.000	5.270	202.000	2270.000	294.000
11.0	43.50	55.50	1520.000	5.230	217.000	2450.000	314.000
12.5	48.70	62.10	1650.000	5.160	236.000	2700.000	342.000
14.2	54.40	69.30	1790.000	5.080	256.000	2950.000	369.000
16.0	60.10	76.60	1920.000	5.000	274.000	3200.000	394.000
150	4.0	17.90	22.87	803.200	5.927	107.100	1268.000	161.600
5.0	22.60	28.70	1002.000	5.900	134.000	1550.000	197.000
6.3	28.10	35.80	1220.000	5.850	163.000	1910.000	240.000
8.0	35.10	44.80	1490.000	5.770	199.000	2350.000	291.000
10.0	43.10	54.90	1770.000	5.680	236.000	2830.000	344.000
11.0	47.00	59.90	1900.000	5.640	254.000	3060.000	368.000
12.5	52.70	67.10	2080.000	5.570	277.000	3370.000	402.000
14.2	58.90	75.00	2260.000	5.490	302.000	3710.000	436.000
16.0	65.20	83.00	2430.000	5.410	324.000	4030.000	467.000
160	5.0	23.70	30.23	1194.000	6.285	149.300	1901.000	225.600
6.3	30.10	38.30	1500.000	6.260	187.000	2330.000	275.000
8.0	37.60	48.00	1830.000	6.180	229.000	2880.000	335.000
10.0	46.30	58.90	2190.000	6.090	273.000	3480.000	398.000
12.5	56.60	72.10	2580.000	5.980	322.000	4160.000	467.000
14.2	63.30	80.70	2810.000	5.900	351.000	4580.000	508.000
16.0	70.20	89.40	3030.000	5.820	379.000	4990.000	546.000
180	5.0	26.90	34.23	1726.000	7.102	191.800	2731.000	289.700
6.3	34.00	43.30	2170.000	7.070	241.000	3360.000	355.000
8.0	42.70	54.40	2660.000	7.000	296.000	4160.000	434.000
10.0	52.50	66.90	3190.000	6.910	355.000	5050.000	518.000
12.5	64.40	82.10	3790.000	6.800	421.000	6070.000	613.000
14.2	72.20	92.00	4150.000	6.720	462.000	6710.000	670.000
16.0	80.20	102.00	4504.000	6.640	500.000	7343.000	724.000
200	4.0	24.60	31.30	2000.000	8.000	200.000	3041.000	295.000
5.0	30.00	38.23	2397.000	7.919	239.700	3772.000	361.700
6.3	38.00	48.40	3010.000	7.890	301.000	4650.000	444.000
8.0	47.70	60.80	3710.000	7.810	371.000	5780.000	545.000
10.0	58.80	74.90	4470.000	7.720	447.000	7030.000	655.000
12.5	72.30	92.10	5340.000	7.610	534.000	8490.000	778.000
14.2	81.10	103.00	5870.000	7.540	587.000	9420.000	854.000
16.0	90.30	115.00	6390.000	7.460	639.000	10340.000	927.000
220	5.0	33.10	42.23	3222.000	8.736	292.900	5048.000	441.700
6.3	41.90	53.40	4050.000	8.710	368.000	6240.000	544.000
8.0	52.70	67.20	5000.000	8.630	455.000	7760.000	669.000
10.0	65.10	82.90	6050.000	8.540	550.000	9470.000	807.000
12.5	80.10	102.00	7250.000	8.430	659.000	11480.000	963.000
14.2	90.10	115.00	8010.000	8.350	728.000	12770.000	1060.000
16.0	100.00	128.00	8750.000	8.270	795.000	14050.000	1160.000
250	5.0	37.90	48.23	4785.000	9.961	382.800	7458.000	576.700
6.3	47.90	61.00	6010.000	9.930	481.000	9240.000	712.000
8.0	60.30	76.80	7450.000	9.860	596.000	11530.000	880.000
10.0	74.50	94.90	9060.000	9.770	724.000	14110.000	1060.000
12.5	91.90	117.00	10920.000	9.660	873.000	17160.000	1280.000
14.2	103.00	132.00	12090.000	9.580	967.000	19140.000	1410.000
16.0	115.00	147.00	13270.000	9.500	1060.000	21140.000	1550.000
260	6.3	49.90	63.50	6790.000	10.300	522.000	10420.000	773.000
8.0	62.80	80.00	8420.000	10.300	648.000	13010.000	956.000
10.0	77.70	98.90	10240.000	10.200	788.000	15930.000	1160.000
12.5	95.80	122.00	12360.000	10.100	951.000	19410.000	1390.000
14.2	108.00	137.00	13710.000	9.990	1050.000	21660.000	1540.000
16.0	120.00	153.00	15060.000	9.910	1160.000	23940.000	1690.000
300	6.3	57.80	73.60	10550.000	12.000	703.000	16140.000	1040.000
8.0	72.80	92.80	13130.000	11.900	875.000	20190.000	1290.000
10.0	90.20	115.00	16030.000	11.800	1070.000	24810.000	1580.000
12.5	112.00	142.00	19440.000	11.700	1300.000	30330.000	1900.000
14.2	126.00	160.00	21640.000	11.600	1440.000	33940.000	2110.000
16.0	141.00	179.00	23850.000	11.500	1590.000	37620.000	2330.000
320	6.3	61.90	78.90	12920.000	12.800	807.000	19632.000	1193.000
7.1	69.60	88.60	14440.000	12.800	902.000	21982.000	1331.000
8.0	78.10	99.50	16120.000	12.700	1007.000	24588.000	1483.000
10.0	97.00	124.00	19740.000	12.600	1234.000	30235.000	1807.000
12.5	120.00	153.00	24040.000	12.500	1502.000	37019.000	2190.000
14.2	136.00	173.00	26820.000	12.500	1676.000	41459.000	2435.000
16.0	152.00	193.00	29650.000	12.400	1853.000	46010.000	2683.000
350	6.3	67.70	86.20	16920.000	14.000	967.000	25820.000	1440.000
8.0	85.40	109.00	21130.000	13.900	1210.000	32380.000	1790.000
10.0	106.00	135.00	25880.000	13.900	1480.000	39890.000	2190.000
12.5	131.00	167.00	31540.000	13.700	1800.000	48930.000	2650.000
14.2	148.00	189.00	35210.000	13.700	2010.000	54880.000	2960.000
16.0	166.00	211.00	38940.000	13.600	2230.000	60990.000	3260.000
360	6.3	69.80	88.90	18520.000	14.400	1029.000	28112.000	1523.000
7.1	78.50	100.00	20720.000	14.400	1151.000	31500.000	1701.000
8.0	88.20	112.00	23160.000	14.400	1287.000	35263.000	1897.000
10.0	110.00	140.00	28430.000	14.300	1579.000	43445.000	2320.000
12.5	136.00	173.00	34720.000	14.200	1929.000	53321.000	2820.000
14.2	153.00	195.00	38830.000	14.100	2157.000	59817.000	3144.000
16.0	172.00	219.00	43020.000	14.000	2390.000	66501.000	3472.000
400	6.3	77.50	98.80	25460.000	16.100	1270.000	38760.000	1890.000
8.0	97.90	125.00	31860.000	16.000	1590.000	48690.000	2360.000
10.0	122.00	155.00	39130.000	15.900	1960.000	60090.000	2900.000
12.5	151.00	192.00	47840.000	15.800	2390.000	73910.000	3530.000
14.2	170.00	217.00	53530.000	15.700	2680.000	83030.000	3940.000
16.0	191.00	243.00	59340.000	15.600	2970.000	92440.000	4362.000
20.0	235.00	300.00	71535.000	15.400	3577.000	112489.000	5237.000
