
50 x 30 3.0 3.30 4.21 12.83 5.70 1.75 1.16 5.13 3.80 13.53 6.49
4.0 4.20 5.35 15.25 6.69 1.69 1.12 6.10 4.46 16.53 7.71
60 x 40 3.0 4.25 5.41 25.38 13.44 2.17 1.58 8.46 6.72 29.28 11.17
4.0 5.45 6.95 30.99 16.28 2.11 1.53 10.33 8.14 36.67 13.65
5.0 6.56 8.36 35.33 18.43 2.06 1.48 11.78 9.21 42.85 15.60
70 x 50 3.0 5.19 6.61 44.05 26.10 2.58 1.99 12.59 10.44 53.62 17.06
4.0 6.71 8.55 54.67 32.22 2.53 1.94 15.62 12.89 68.07 21.19
5.0 8.13 10.36 63.46 37.20 2.48 1.90 18.13 14.88 80.77 24.64
80 x 40 3.0 5.19 6.61 52.25 17.56 2.81 1.63 13.06 8.78 43.88 15.28
4.0 6.71 8.55 64.79 21.49 2.75 1.59 16.20 10.74 55.24 18.84
5.0 8.13 10.36 75.11 24.59 2.69 1.54 18.78 12.30 64.97 21.74
80 x 50 3.0 5.66 7.21 61.15 29.42 2.91 2.02 15.29 11.77 65.00 19.71
4.0 7.34 9.35 76.36 36.46 2.86 1.98 19.09 14.59 82.70 24.57
5.0 8.91 11.36 89.19 42.29 2.80 1.93 22.30 16.92 98.40 28.69
6.3 10.54 13.43 97.05 46.07 2.69 1.85 24.26 18.43 114.24 32.42
80 x 60 3.0 6.13 7.81 70.05 44.89 3.00 2.40 17.51 14.96 88.35 24.14
4.0 7.97 10.15 87.92 56.12 2.94 2.35 21.98 18.71 113.12 30.32
5.0 9.70 12.36 103.28 65.66 2.89 2.31 25.82 21.89 135.53 35.67
6.3 11.53 14.69 114.21 72.66 2.79 2.22 28.55 24.22 159.77 40.88
7.1 12.66 16.13 120.96 76.83 2.74 2.18 30.24 25.61 172.28 43.59
8.0 13.85 17.64 126.73 80.38 2.68 2.13 31.68 26.79 183.99 46.04
90 x 50 3.0 6.13 7.81 81.85 32.74 3.24 2.05 18.19 13.10 76.67 22.36
4.0 7.97 10.15 102.71 40.71 3.18 2.00 22.82 16.28 97.70 27.96
5.0 9.70 12.36 120.60 47.37 3.12 1.96 26.80 18.95 116.47 32.75
6.3 11.53 14.69 132.69 52.13 3.01 1.88 29.49 20.85 135.96 37.24
7.1 12.66 16.13 140.30 54.89 2.95 1.84 31.18 21.95 145.78 39.53
8.0 13.85 17.64 146.66 57.15 2.88 1.80 32.59 22.86 154.61 41.52
Dimensione
esterna
lati
b x h
mm
Spessore
s
mm
Massa
lineare
kg/m
Area della
sezione
metallica
A
cm2
Momento
d段nerzia
di fl essione
Ix
cm4
Momento
d段nerzia
di fl essione
Iy
cm4
Raggio
di
inerzia
J
cm4
Raggio
di
inerzia
J
cm4
Modulo
resistenza
campo elastico
Wx
cm3
Modulo
resistenza
campo elastico
Wy
cm3
Momento
d段nerzia
di torsione
J
cm4
Modulo
di
torsione
C
cm3
s Profi lati cavi rettangolari a freddo EN 10219
y
h
b
x
48
100 x 40 3.0 6.13 7.81 92.34 21.67 3.44 1.67 18.47 10.84 59.05 19.39
4.0 7.97 10.15 115.70 26.69 3.38 1.62 23.14 13.35 74.53 24.04
5.0 9.70 12.36 135.60 30.76 3.31 1.58 27.12 15.38 87.92 27.90
6.3 11.53 14.69 147.98 33.43 3.17 1.51 29.60 16.72 100.61 31.23
7.1 12.66 16.13 155.94 34.92 3.11 1.47 31.19 17.46 106.62 32.83
8.0 13.85 17.64 162.30 36.03 3.03 1.43 32.46 18.01 111.45 34.08
100 x 50 3.0 6.60 8.41 106.46 36.06 3.56 2.07 21.29 14.42 88.56 25.01
4.0 8.59 10.95 134.14 44.95 3.50 2.03 26.83 17.98 112.99 31.35
5.0 10.48 13.36 158.19 52.45 3.44 1.98 31.64 20.98 134.87 36.80
6.3 12.52 15.95 175.68 58.19 3.32 1.91 35.14 23.27 158.08 42.07
7.1 13.78 17.55 186.64 61.48 3.26 1.87 37.33 24.59 169.91 44.78
8.0 15.11 19.24 196.24 64.29 3.19 1.83 39.25 25.72 180.79 47.20
100 x 60 3.0 7.07 9.01 120.57 54.65 3.66 2.46 24.11 18.22 121.67 30.64
4.0 9.22 11.75 152.58 68.68 3.60 2.42 30.52 22.89 156.27 38.68
5.0 11.27 14.36 180.77 80.83 3.55 2.37 36.15 26.94 187.86 45.75
6.3 13.51 17.21 203.38 90.91 3.44 2.30 40.68 30.30 223.36 53.00
7.1 14.89 18.97 217.34 96.82 3.38 2.26 43.47 32.27 242.10 56.85
8.0 16.36 20.84 230.18 102.18 3.32 2.21 46.04 34.06 260.32 60.49
100 x 80 3.0 8.01 10.21 148.81 105.64 3.82 3.22 29.76 26.41 196.12 41.91
4.0 10.48 13.35 189.47 134.17 3.77 3.17 37.89 33.54 253.79 53.38
5.0 12.84 16.36 225.94 159.61 3.72 3.12 45.19 39.90 307.55 63.72
6.3 15.49 19.73 258.77 182.81 3.62 3.04 51.75 45.70 371.35 74.97
7.1 17.12 21.81 278.73 196.66 3.57 3.00 55.75 49.16 406.26 81.15
8.0 18.87 24.04 298.06 210.02 3.52 2.96 59.61 52.50 441.84 87.29
120 x 50 3.0 7.54 9.61 168.58 42.69 4.19 2.11 28.10 17.08 112.87 30.32
4.0 9.85 12.55 213.82 53.43 4.13 2.06 35.64 21.37 144.22 38.13
5.0 12.05 15.36 253.89 62.62 4.07 2.02 42.32 25.05 172.44 44.92
6.3 14.50 18.47 286.21 70.30 3.94 1.95 47.70 28.12 203.17 51.74
7.1 16.01 20.39 306.36 74.66 3.88 1.91 51.06 29.87 219.10 55.30
8.0 17.62 22.44 325.05 78.58 3.81 1.87 54.17 31.43 234.16 58.59
Dimensione
esterna
lati
b x h
mm
Spessore
s
mm
Massa
lineare
kg/m
Area della
sezione
metallica
A
cm2
Momento
d段nerzia
di fl essione
Ix
cm4
Momento
d段nerzia
di fl essione
Iy
cm4
Raggio
di
inerzia
J
cm4
Raggio
di
inerzia
J
cm4
Modulo
resistenza
campo elastico
Wx
cm3
Modulo
resistenza
campo elastico
Wy
cm3
Momento
d段nerzia
di torsione
J
cm4
Modulo
di
torsione
C
cm3
Profi lati cavi rettangolari a freddo EN 10219 s
y
h
b
x
49
120 x 60 3.0 8.01 10.21 189.12 64.40 4.30 2.51 31.52 21.47 156.34 37.14
4.0 10.48 13.35 240.74 81.25 4.25 2.47 40.12 27.08 201.12 47.05
5.0 12.84 16.36 286.97 95.99 4.19 2.42 47.83 32.00 242.23 55.85
6.3 15.49 19.73 326.97 109.16 4.07 2.35 54.49 36.39 289.35 65.14
7.1 17.12 21.81 351.67 116.80 4.02 2.31 58.61 38.93 314.57 70.13
8.0 18.87 24.04 375.31 123.98 3.95 2.27 62.55 41.33 339.55 74.96
120 x 80 3.0 8.96 11.41 230.20 123.43 4.49 3.29 38.37 30.86 255.47 50.80
4.0 11.73 14.95 294.59 157.29 4.44 3.24 49.10 39.32 331.24 64.93
5.0 14.41 18.36 353.14 187.78 4.39 3.20 58.86 46.94 402.27 77.77
6.3 17.47 22.25 408.50 217.11 4.28 3.12 68.08 54.28 487.82 92.07
7.1 19.35 24.65 442.29 234.51 4.24 3.08 73.71 58.63 535.14 100.01
8.0 21.39 27.24 475.83 251.66 4.18 3.04 79.31 62.92 584.04 108.01
120 x 100 4.0 12.99 16.55 348.43 263.24 4.59 3.99 58.07 52.65 477.84 82.83
5.0 15.98 20.36 419.31 316.27 4.54 3.94 69.88 63.25 582.86 99.75
6.3 19.44 24.77 490.02 369.56 4.45 3.86 81.67 73.91 712.27 119.11
7.1 21.58 27.49 532.90 401.52 4.40 3.82 88.82 80.30 785.03 130.02
8.0 23.90 30.44 576.35 433.83 4.35 3.78 96.06 86.77 861.65 141.25
140 x 80 4.0 12.99 16.55 429.60 180.42 5.10 3.30 61.37 45.10 411.60 76.48
5.0 15.98 20.36 517.06 215.94 5.04 3.26 73.87 53.99 500.51 91.83
6.3 19.44 24.77 602.72 251.42 4.93 3.19 86.10 62.85 608.51 109.19
7.1 21.58 27.49 655.14 272.36 4.88 3.15 93.59 68.09 668.68 118.88
8.0 23.90 30.44 708.09 293.31 4.82 3.10 101.16 73.33 731.35 128.77
150 x 50 3.0 8.96 11.41 298.55 52.65 5.12 2.15 39.81 21.06 150.22 38.28
4.0 11.73 14.95 381.39 66.16 5.05 2.10 50.85 26.47 192.14 48.30
5.0 14.41 18.36 456.29 77.87 4.99 2.06 60.84 31.15 230.05 57.11
6.3 17.47 22.25 522.83 88.47 4.85 1.99 69.71 35.39 272.24 66.26
7.1 19.35 24.65 564.18 94.44 4.78 1.96 75.22 37.78 294.42 71.09
8.0 21.39 27.24 604.42 100.00 4.71 1.92 80.59 40.00 315.88 75.68
150 x 100 4.0 14.87 18.95 594.60 318.57 5.60 4.10 79.28 63.71 661.63 104.94
5.0 18.33 23.36 719.20 384.02 5.55 4.05 95.89 76.80 808.68 126.81
6.3 22.41 28.55 848.27 452.66 5.45 3.98 113.10 90.53 991.64 152.27
7.1 24.93 31.75 926.94 493.62 5.40 3.94 123.59 98.72 1095.50 166.76
8.0 27.67 35.24 1008.13 535.65 5.35 3.90 134.42 107.13 1205.89 181.85
Dimensione
esterna
lati
b x h
mm
Spessore
s
mm
Massa
lineare
kg/m
Area della
sezione
metallica
A
cm2
Momento
d段nerzia
di fl essione
Ix
cm4
Momento
d段nerzia
di fl essione
Iy
cm4
Raggio
di
inerzia
J
cm4
Raggio
di
inerzia
J
cm4
Modulo
resistenza
campo elastico
Wx
cm3
Modulo
resistenza
campo elastico
Wy
cm3
Momento
d段nerzia
di torsione
J
cm4
Modulo
di
torsione
C
cm3
s Profi lati cavi rettangolari a freddo EN 10219
y
h
b
x
50
160 x 80 4.0 14.25 18.15 597.71 203.54 5.74 3.35 74.71 50.89 494.10 88.03
5.0 17.55 22.36 721.69 244.11 5.68 3.30 90.21 61.03 601.34 105.90
6.3 21.42 27.29 846.48 285.72 5.57 3.24 105.81 71.43 732.25 126.31
7.1 23.81 30.33 922.98 310.21 5.52 3.20 115.37 77.55 805.56 137.77
8.0 26.41 33.64 1001.22 334.95 5.46 3.16 125.15 83.74 882.33 149.54
160 x 90 5.0 18.33 23.36 781.77 319.52 5.79 3.70 97.72 71.00 739.70 120.86
6.3 22.41 28.55 920.94 375.90 5.68 3.63 115.12 83.53 904.70 144.81
7.1 24.93 31.75 1006.04 409.33 5.63 3.59 125.75 90.96 997.94 158.38
8.0 27.67 35.24 1093.73 443.46 5.57 3.55 136.72 98.55 1096.54 172.44
180 x 60 4.0 14.25 18.15 678.19 118.94 6.11 2.56 75.35 39.65 341.40 72.16
5.0 17.55 22.36 817.87 141.49 6.05 2.52 90.87 47.16 412.10 86.15
6.3 21.42 27.29 954.66 163.92 5.91 2.45 106.07 54.64 495.09 101.58
7.1 23.81 30.33 1039.12 176.77 5.85 2.41 115.46 58.92 540.37 110.04
8.0 26.41 33.64 1124.81 189.39 5.78 2.37 124.98 63.13 586.35 118.47
180 x 80 5.0 19.12 24.36 971.03 272.28 6.31 3.34 107.89 68.07 704.11 119.97
6.3 23.40 29.81 1144.82 320.02 6.20 3.28 127.20 80.01 858.27 143.44
7.1 26.04 33.17 1251.49 348.07 6.14 3.24 139.05 87.02 944.93 156.67
8.0 28.92 36.84 1361.65 376.59 6.08 3.20 151.29 94.15 1036.02 170.32
180 x 90 5.0 19.90 25.36 1047.62 355.68 6.43 3.75 116.40 79.04 869.09 136.92
6.3 24.39 31.07 1239.91 420.12 6.32 3.68 137.77 93.36 1064.04 164.44
7.1 27.16 34.59 1357.68 458.24 6.26 3.64 150.85 101.83 1174.61 180.08
8.0 30.18 38.44 1480.07 497.42 6.20 3.60 164.45 110.54 1291.93 196.38
180 x 100 5.0 20.69 26.36 1124.20 451.77 6.53 4.14 124.91 90.35 1044.79 153.88
6.3 25.38 32.33 1334.99 535.75 6.43 4.07 148.33 107.15 1283.41 185.46
7.1 28.27 36.01 1463.86 585.71 6.38 4.03 162.65 117.14 1419.67 203.53
8.0 31.43 40.04 1598.49 637.47 6.32 3.99 177.61 127.49 1565.24 222.49
180 x 120 5.0 22.26 28.36 1277.37 683.97 6.71 4.91 141.93 114.00 1423.83 187.84
6.3 27.36 34.85 1525.15 816.14 6.62 4.84 169.46 136.02 1757.08 227.56
7.1 30.50 38.85 1676.23 895.38 6.57 4.80 186.25 149.23 1949.19 250.50
8.0 33.95 43.24 1835.33 978.44 6.51 4.76 203.93 163.07 2156.35 274.82
Dimensione
esterna
lati
b x h
mm
Spessore
s
mm
Massa
lineare
kg/m
Area della
sezione
metallica
A
cm2
Momento
d段nerzia
di fl essione
Ix
cm4
Momento
d段nerzia
di fl essione
Iy
cm4
Raggio
di
inerzia
J
cm4
Raggio
di
inerzia
J
cm4
Modulo
resistenza
campo elastico
Wx
cm3
Modulo
resistenza
campo elastico
Wy
cm3
Momento
d段nerzia
di torsione
J
cm4
Modulo
di
torsione
C
cm3
Profi lati cavi rettangolari a freddo EN 10219 s
y
h
b
x
51
200 x 100 5.0 22.26 28.36 1459.25 496.94 7.17 4.19 145.93 99.39 1206.29 171.94
6.3 27.36 34.85 1739.24 591.15 7.06 4.12 173.92 118.23 1482.82 207.60
7.1 30.50 38.85 1910.66 647.11 7.01 4.08 191.07 129.42 1641.16 228.06
8.0 33.95 43.24 2090.84 705.36 6.95 4.04 209.08 141.07 1810.72 249.60
200 x 120 5.0 23.83 30.36 1649.42 750.14 7.37 4.97 164.94 125.02 1652.00 209.87
6.3 29.34 37.37 1975.70 897.66 7.27 4.90 197.57 149.61 2040.16 254.71
7.1 32.73 41.69 2174.97 986.00 7.22 4.86 217.50 164.33 2264.56 280.67
8.0 36.46 46.44 2385.92 1078.97 7.17 4.82 238.59 179.83 2507.04 308.27
200 x 150 5.0 26.18 33.36 1934.67 1245.04 7.62 6.11 193.47 166.00 2391.38 266.83
6.3 32.30 41.15 2330.39 1499.15 7.53 6.04 233.04 199.89 2965.40 325.47
7.1 36.07 45.95 2571.44 1652.46 7.48 6.00 257.14 220.33 3300.20 359.71
8.0 40.23 51.24 2828.55 1815.54 7.43 5.95 282.85 242.07 3664.86 396.44
250 x 100 5.0 26.18 33.36 2553.76 609.85 8.75 4.28 204.30 121.97 1620.11 217.08
6.3 32.30 41.15 3065.83 729.63 8.63 4.21 245.27 145.93 1993.22 262.95
7.1 36.07 45.95 3380.04 800.59 8.58 4.17 270.40 160.12 2207.93 289.39
8.0 40.23 51.24 3714.08 875.06 8.51 4.13 297.13 175.01 2438.66 317.41
250 x 150 5.0 30.11 38.36 3304.18 1507.95 9.28 6.27 264.33 201.06 3284.54 336.90
6.3 37.25 47.45 4001.43 1824.59 9.18 6.20 320.11 243.28 4077.70 412.18
7.1 41.65 53.05 4427.59 2015.22 9.14 6.16 354.21 268.70 4542.55 456.34
8.0 46.51 59.24 4885.79 2219.25 9.08 6.12 390.86 295.90 5050.45 503.96
10.0 56.96 72.57 5825.01 2634.20 8.96 6.02 466.00 351.23 6120.70 602.08
12.5 68.33 87.04 6632.67 3002.33 8.73 5.87 530.61 400.31 7314.55 704.10
260 x 160 5.0 33.25 42.36 4121.36 2349.53 9.86 7.45 317.03 261.06 4694.89 425.87
6.3 41.20 52.49 5012.66 2856.31 9.77 7.38 385.59 317.37 5844.33 522.95
7.1 46.11 58.73 5556.90 3162.82 9.73 7.34 427.45 351.42 6522.24 580.27
8.0 51.53 65.64 6145.21 3493.23 9.68 7.29 472.71 388.14 7266.68 642.43
10.0 63.24 80.57 7363.31 4174.13 9.56 7.20 566.41 463.79 8850.30 771.94
Dimensione
esterna
lati
b x h
mm
Spessore
s
mm
Massa
lineare
kg/m
Area della
sezione
metallica
A
cm2
Momento
d段nerzia
di fl essione
Ix
cm4
Momento
d段nerzia
di fl essione
Iy
cm4
Raggio
di
inerzia
J
cm4
Raggio
di
inerzia
J
cm4
Modulo
resistenza
campo elastico
Wx
cm3
Modulo
resistenza
campo elastico
Wy
cm3
Momento
d段nerzia
di torsione
J
cm4
Modulo
di
torsione
C
cm3
s
y
h
b
x Profi lati cavi rettangolari a freddo EN 10219
52
300 x 150 5.0 34.03 43.36 5153.13 1770.87 10.90 6.39 343.54 236.12 4214.25 406.98
6.3 42.19 53.75 6265.59 2150.03 10.80 6.32 417.71 286.67 5234.42 498.91
7.1 47.22 60.15 6946.90 2377.98 10.75 6.29 463.13 317.06 5834.16 553.01
8.0 52.79 67.24 7683.57 2622.95 10.69 6.25 512.24 349.73 6490.59 611.52
10.0 64.81 82.57 9209.37 3125.03 10.56 6.15 613.96 416.67 7878.65 732.81
12.5 78.14 99.54 10594.23 3594.78 10.32 6.01 706.28 479.30 9451.90 861.80
300 x 200 5.0 37.96 48.36 6241.05 3360.92 11.36 8.34 416.07 336.09 6835.78 551.89
6.3 47.14 60.05 7624.39 4103.82 11.27 8.27 508.29 410.38 8523.54 679.80
7.1 52.79 67.25 8469.98 4553.79 11.22 8.23 564.67 455.38 9524.03 755.69
8.0 59.07 75.24 9389.27 5041.67 11.17 8.19 625.95 504.17 10626.50 838.38
10.0 72.66 92.57 11312.70 6057.73 11.05 8.09 754.18 605.77 12987.13 1012.19
12.5 87.95 112.04 13178.86 7059.94 10.85 7.94 878.59 705.99 15767.68 1204.48
350 x 250 6.3 57.03 72.65 12923.13 7743.81 13.34 10.32 738.46 619.51 15291.03 1010.43
7.1 63.94 81.45 14392.82 8617.81 13.29 10.29 822.45 689.43 17115.98 1126.04
8.0 71.63 91.24 16001.29 9572.62 13.24 10.24 914.36 765.81 19136.32 1252.81
10.0 88.36 112.57 19407.47 11588.34 13.13 10.15 1109.00 927.07 23499.74 1522.29
12.5 107.58 137.04 22922.48 13689.96 12.93 9.99 1309.86 1095.20 28763.59 1829.81
400 x 150 6.3 52.08 66.35 12888.28 2800.92 13.94 6.50 644.41 373.46 7630.49 672.42
7.1 58.37 74.35 14329.99 3103.50 13.88 6.46 716.50 413.80 8508.73 746.40
8.0 65.35 83.24 15900.71 3430.37 13.82 6.42 795.04 457.38 9471.59 826.71
10.0 80.51 102.57 19199.32 4106.70 13.68 6.33 959.97 547.56 11514.69 994.38
12.5 97.77 124.54 22406.49 4779.68 13.41 6.19 1120.32 637.29 13866.57 1177.43
400 x 200 6.3 57.03 72.65 15329.74 5286.10 14.53 8.53 766.49 528.61 12672.84 916.17
7.1 63.94 81.45 17070.37 5875.36 14.48 8.49 853.52 587.54 14168.81 1019.88
8.0 71.63 91.24 18974.42 6517.08 14.42 8.45 948.72 651.71 15820.22 1133.29
10.0 88.36 112.57 23002.65 7864.40 14.30 8.36 1150.13 786.44 19368.49 1373.21
12.5 107.58 137.04 27100.50 9260.46 14.06 8.22 1355.02 926.05 23594.07 1644.04
14.2 120.64 153.68 29858.47 10172.80 13.94 8.14 1492.92 1017.28 26262.64 1815.37
16.0 134.06 170.77 32547.00 11055.57 13.81 8.05 1627.35 1105.56 28928.33 1983.78
Dimensione
esterna
lati
b x h
mm
Spessore
s
mm
Massa
lineare
kg/m
Area della
sezione
metallica
A
cm2
Momento
d段nerzia
di fl essione
Ix
cm4
Momento
d段nerzia
di fl essione
Iy
cm4
Raggio
di
inerzia
J
cm4
Raggio
di
inerzia
J
cm4
Modulo
resistenza
campo elastico
Wx
cm3
Modulo
resistenza
campo elastico
Wy
cm3
Momento
d段nerzia
di torsione
J
cm4
Modulo
di
torsione
C
cm3
Profi lati cavi rettangolari a freddo EN 10219 s
y
h
b
x
53
400 x 250 6.3 61.98 78.95 17771.19 8679.41 15.00 10.49 888.56 694.35 18469.03 1160.07
7.1 69.51 88.55 19810.74 9665.37 14.96 10.45 990.54 773.23 20679.01 1293.58
8.0 77.91 99.24 22048.12 10744.32 14.91 10.40 1102.41 859.55 23127.49 1440.19
10.0 96.21 122.57 26805.99 13029.17 14.79 10.31 1340.30 1042.33 28423.19 1752.64
12.5 117.39 149.54 31794.51 15454.28 14.58 10.17 1589.73 1236.34 34834.27 2111.78
450 x 250 6.3 66.92 85.25 23606.12 9615.01 16.64 10.62 1049.16 769.20 21730.45 1309.73
7.1 75.09 95.65 26335.57 10712.92 16.59 10.58 1170.47 857.03 24335.16 1461.13
8.0 84.19 107.24 29335.49 11916.03 16.54 10.54 1303.80 953.28 27222.45 1627.59
10.0 104.06 132.57 35736.59 14470.01 16.42 10.45 1588.29 1157.60 33473.36 1983.04
12.5 127.20 162.04 42535.83 17218.61 16.20 10.31 1890.48 1377.49 41057.16 2393.83
500 x 200 6.3 66.92 85.25 26667.56 6468.39 17.69 8.71 1066.70 646.84 16993.54 1152.57
7.1 75.09 95.65 29743.39 7196.92 17.63 8.67 1189.74 719.69 19004.06 1284.11
8.0 84.19 107.24 33121.69 7992.49 17.57 8.63 1324.87 799.25 21225.17 1428.27
10.0 104.06 132.57 40320.93 9671.06 17.44 8.54 1612.84 967.11 26004.90 1734.35
12.5 127.20 162.04 47874.31 11460.98 17.19 8.41 1914.97 1146.10 31721.53 2083.82
14.2 142.93 182.08 52973.10 12628.61 17.06 8.33 2118.92 1262.86 35352.00 2306.09
16.0 159.18 202.77 58015.95 13770.87 16.91 8.24 2320.64 1377.09 38998.57 2526.24
500 x 300 6.3 76.81 97.85 34345.78 15777.18 18.74 12.70 1373.83 1051.81 34061.56 1766.32
7.1 86.23 109.85 38368.73 17608.45 18.69 12.66 1534.75 1173.90 38184.78 1973.42
8.0 96.75 123.24 42805.10 19623.51 18.64 12.62 1712.20 1308.23 42767.40 2201.93
10.0 119.76 152.57 52327.60 23932.70 18.52 12.52 2093.10 1595.51 52735.98 2692.95
12.5 146.83 187.04 62731.08 28686.68 18.31 12.38 2509.24 1912.45 64953.57 3268.75
14.2 165.23 210.48 69733.99 31840.34 18.20 12.30 2789.36 2122.69 72864.37 3641.78
16.0 184.30 234.77 76763.26 34994.59 18.08 12.21 3070.53 2332.97 80971.78 4018.78
20.0 225.16 286.83 90987.11 41340.86 17.81 12.01 3639.48 2756.06 97951.05 4791.33
