psi   | k   | c1    | c3
1.000 | 1.0 | 1.000 | 1.000
1.000 | 0.7 | 1.000 | 1.113
1.000 | 0.5 | 1.000 | 1.144
0.750 | 1.0 | 1.141 | 0.998
0.750 | 0.7 | 1.270 | 1.565
0.750 | 0.5 | 1.305 | 2.283
0.500 | 1   | 1.323 | 0.992
0.500 | 0.7 | 1.473 | 1.556
0.500 | 0.5 | 1.514 | 2.271
0.25  | 1   | 1.563 | 0.977
0.25  | 0.7 | 1.739 | 1.531
0.25  | 0.5 | 1.788 | 2.235
0.00  | 1   | 1.879 | 0.939
0.00  | 0.7 | 2.092 | 1.473
0.00  | 0.5 | 2.15  | 2.15
-0.25 | 1   | 2.281 | 0.855
-0.25 | 0.7 | 2.538 | 1.34
-0.25 | 0.5 | 2.609 | 1.957
-0.5  | 1   | 2.704 | 0.676
-0.5  | 0.7 | 3.009 | 1.059
-0.5  | 0.5 | 3.093 | 1.546
-0.75 | 1   | 2.927 | 0.366
-0.75 | 0.7 | 3.009 | 0.575
-0.75 | 0.5 | 3.093 | 0.873
-1    | 1   | 2.752 | 0
-1    | 0.7 | 3.063 | 0
-1    | 0.5 | 3.149 | 0
