diagramma | k   | c1    | c2    | c3
quada     | 1.0 | 1.127 | 0.454 | 5.25
quada     | 0.5 | 0.972 | 0.404 | 0.98
bilina    | 1.0 | 1.348 | 0.630 | 1.730
bilina    | 0.5 | 1.070 | 0.432 | 3.05
trilina   | 1.0 | 1.046 | 0.430 | 1.12
trilina   | 0.5 | 1.01  | 0.41  | 1.89
quadi     | 1.0 | 2.578 | 1.554 | 0.753
quadi     | 0.5 | 0.712 | 0.652 | 0.107
bilini    | 1.0 | 1.683 | 1.645 | 2.640
bilini    | 0.5 | 0.938 | 0.715 | 4.8
