
Dimensioni
A	X	B	X	A
mm
Spessore
Peso        	 kg/ml
profilo     	 0.6   	 0.7   	 0.8   	 1     	 1.2   	 1.5    	 2      	 2.5    	 3
10X10X15    	 0.180 	 0.208 	 0.235 	 0.288 	 0.337 	 0.408
15X10X15    	       	 0.264 	 0.299 	 0.368 	 0.433 	 0.528
20X10X20    	       	 0.275 	 0.312 	 0.384 	 0.453 	 0.552
20X12X20    	 0.156 	 0.180 	 0.203 	 0.248 	 0.289 	 0.348
10X15X10    	       	 0.292 	 0.290 	 0.408 	 0.481 	 0.558
20X15X20    	       	       	 0.395 	 0.488 	 0.577 	 0.708
25X15X25    	       	 0.208 	 0.235 	 0.288 	 0.337 	 0.408  	 0.512
10X20X10    	       	 0.264 	 0.299 	 0.368 	 0.433 	 0.528  	 0.672
12X20X15    	       	       	 0.427 	 0.528 	 0.625 	 0.768  	 0.992
20X20X25    	       	       	 0.491 	 0.608 	 0.721 	 0.888  	 1.150
30X20X30    	 0.688 	 0.817 	 1.000 	 1.310 	 1.600 	 1.870
35X20X35    	       	 0.913 	 1.130 	 1.470 	 1.800 	 2.110
40X20X40    	 0.808 	 0.961 	 1.180 	 1.550 	 1.900 	 2.230
40X25X40    	 0.368 	 0.433 	 0.528 	 0.672
10X30X10    	 0.448 	 0.529 	 0.648 	 0.832 	 1.000 	 1.150
15X30X15    	 0.528 	 0.625 	 0.768 	 0.992 	 1.200 	 1.390
20X30X20    	 0.608 	 0.721 	 0.888 	 1.150 	 1.400 	 .1630
25X30X25    	       	 1.000 	 1.240 	 1.630 	 2.000 	 2.350
40X30X40    	       	       	 1.490 	 1.950 	 2.400 	 2.830
50X30X50    	       	       	 0.888 	 1.150 	 1.400 	 1.630
20X40X20    	       	       	 1.130 	 1.470 	 1.800 	 2.110  	 2.690  	 3.200
30X40X30    	       	       	 1.010 	 1.310 	 1.600 	 1.870  	 2.370  	 2.800
25X50X25    	       	       	 1.120 	 1.470 	 1.800 	 2.110  	 2.690  	 3.200
30X50X30    	       	       	 1.250 	 1.630 	 2.000 	 2.350  	 3.000  	 3.600
40X50X40    	       	       	 1.490 	 1.950 	 2.400 	 2.830  	 3.650  	 4.400
20X60X20    	       	       	 1.130 	 1.470 	 1.800 	 2.110  	 2.690
30X60X30    	       	       	 1.370 	 1.790 	 2.200 	 2.590  	 3.330  	 4.000
40X60X40    	       	       	 1.610 	 2.110 	 2.600 	 3.070  	 3.970  	 4.800
40X80X40    	       	       	 1.850 	 2.430 	 3.000 	 3.550  	 4.600  	 5.600
50X80X50    	       	       	 2.090 	 2.750 	 3.400 	 4.030  	 5.250  	 6.400
50X100X50   	       	       	 2.330 	 3.070 	 3.800 	 4.510  	 5.890  	 7.200
50X120X50   	       	       	 2.570 	 3.390 	 4.200 	 4.990  	 6.520  	 8.000  	 9.410
60X120X60   	       	       	       	 3.710 	 4.600 	 5.470  	 7.170  	 8.800  	 10.370
60X140X60   	       	       	       	 8.190 	 5.000 	 5.950  	 7.800  	 9.600  	 11.320
50X150X50   	       	       	 2.930 	 3.870 	 4.800 	 5.710  	 7.490  	 9.200  	 10.850
60X160X60   	       	       	       	 4.350 	 5.400 	 6.430  	 8.450  	 10.400 	 12.290
80X180X80   	       	       	       	       	       	 7.870  	 10.370 	 12.800 	 15.170
100X200X100 	       	       	       	       	       	 9.310  	 12.290 	 15.200 	 18.050
100X220X100 	       	       	       	       	       	 9.790  	 12.930 	 16.000 	 19.000
100X250X100 	       	       	       	       	       	 10.510 	 13.890 	 17.200 	 20.450
100X300X100 	       	       	       	       	       	 11.710 	 15.490 	 19.200 	 22.850
