GL24H VISTA,,,,,,,,,,,,,,,,
,100,120,140,160,200,240,280,320,360,400,440,480,520,560,600,640-1240
80,,30*,24,21*,18,15,12,9,9,9,6,6,6,6,6,3
100,36,30*,24*,21*,18*,15,12,9,9,9,6,6,6,6,6,3
120,,20,,14*,12*,10*,8,6,6,6,4,4,4,4,4,2
140,,,16,14,12*,10,8,6,6,6,4,4,4,4,4,2
160,,,,14*,12*,10*,8,6,6,6,4,4,4,4,4,2
180,,,,,12,10,8,6,6,6,4,4,4,4,4,2
200,,,,,6*,5*,8,3*,6,6,4,4,4,4,4,2
220,,,,,,10,8,6,6,6,4,4,4,4,4,2
240,,,,,,10,8,6,6,6,4,4,4,4,4,2
