||||||||||||
id | tipo                                                                                        | fm_min | fm_max | tau0_min | tau0_max | E_min | E_max | G_min | G_max | rho|fv0_min|fv0_max
0|muratura in pietrame disordinata(ciottoli,pietre erratiche e irregolari)                   |1|2|0.018|0.032|690|1050|230|350|1900|0|0
1|muratura a conci sbozzati,con paramenti di spessore disomogeneo          |2|2|0.035|0.051|1020|1440|340|480|2000|0|0
2|muratura in pietre a spacco con buona tessitura                                           |2.6|3.8|0.056|0.074|1500|1980|500|660|2100|0|0
3|muratura irregolare di pietra tenera (tufo, calcarenite,etc,)|1.4|2.2|0.028|0.042|900|1260|300|420|13|0|0
4|muratura a conci regolari di pietra tenera (tufo, calcarenite,etc,)|2|3.2|0.04|0.08|1200|1620|400|500|1600|0.1|0.19
5|muratura a blocchi lapidei squadrati|5.8|8.2|0.09|0.12|2400|3300|800|1100|2200|0.18|0.28
6|muratura in mattoni pieni e malta di calce|2.6|4.3|0.05|0.13|1200|1800|400|600|1800|0.13|0.27
7|muratura in mattoni semipieni con malta cementizia (es doppio UNI foratura <=40%)|5|8|0.08|0.17|3500|5600|875|1400|1500|0.2|0.36
